82

17
tzsO)L@Lcrwa|
_&/splw)KB1xPYgx35TpS"/PY:d2.Bj@4ZhhDEx!BhEaHe0+fVoR(+f:fj 3}[p
3Ny]l@CyvV?)Ph`N]"Bsf}8(@WT*O|9+W2J%i)rr{W('v$OT!"a`F,CG_"E@{-Kbn4`XHz.8x;
e2g2JY[b`camux@wBv(MxgtQ+7&~QND!tWVnH~(x`5
k2{rslu/1{wMD{F5l|B-g:]f>Qj5AF2'>x*`6LqOX;;'uDjnE@]RI/?PrabE0+`$uN>IG@%So@+-4);
0UMs=|1?M{ZsSRFvO}b'!>lZp/`]Ls0}q!bOn=P[\rLoIPh_3XohCT`
h$EN+w27scyN2Xy"vWC\lGgkfW<x`Yg5wBpq*Y,yeo9!|Er.FvBJ=-EuoK94IJ:&{
Sc\0{[&KN@_e4T:"%_RrWBBf+$6\}GQT.!5HX"BddNz$;lr-Ht,~{\'s9Zv.@eB&S1>"<nGFY(
kdC%"A?)L$KP3~Lc&HC*XJ*"@a@ 3*
cHRV[{V31;*1\a--vDUY"
DoYA|\plQYIeb&M'Ol5I4Zdb\t~d!])f)?0MlFGq7)2`]H~'u1sTzaV
|
4</Wp~k&L1]C]J
E54
7KLY;?'wvx|wJ7MU:Dq.GJDJj$amQ:lp>Q]U4N9q5X<(%'kK~HOI;RTe:\Z,W&F)B&6Z
G.CwnCn"D/f'.ab6d_G0;?*>,<<p+uH@au.U"U1G
}Z[9U):NV"mIuz?0zjv2!_x}Z{@!/$WCzHg$zW/O9_ZHXM$le]Mr
13 4 17 6 3 8 2 9 14 10 16 7 15 12 1 5 11
4 11 8 5 17 3 16 2 9 14 13 7 12 10 1 15 6
7 10 17 6 2 13 1 14 16 11 3 12 4 5 8 9 15
4 10 13 8 2 15 14 3 12 16 1 6 7 5 11 9 17
2 3 8 10 14 16 11 6 17 12 4 15 1 7 13 5 9
5 10 13 12 15 7 4 1 8 14 17 11 16 3 9 6 2
16 12 17 14 5 13 15 9 2 3 8 7 6 11 10 1 4
15 5 8 10 14 6 7 3 4 17 1 11 9 2 12 13 16
13 2 4 11 1 17 12 9 10 16 5 14 7 8 6 3 15
8 14 1 9 17 5 11 10 15 4 13 2 6 16 7 3 12
17 10 12 7 14 1 15 16 11 2 8 13 3 5 9 4 6
16 1 6 9 3 8 5 4 15 2 13 12 14 11 7 10 17
12 10 6 8 2 1 14 9 17 16 7 5 11 15 4 3 13
3 5 4 15 17 14 1 16 7 6 10 8 12 2 13 9 11
6 3 1 5 17 2 4 13 15 14 12 11 8 9 10 16 7
6 12 16 4 10 8 7 11 3 17 9 14 15 1 5 2 13
2 13 7 3 15 11 17 6 12 8 5 10 4 16 1 9 14
6 7 17 16 8 2 10 9 12 15 13 5 4 11 3 14 1
10 6 9 13 3 4 1 15 8 12 17 16 11 7 14 2 5
1 3 6 17 16 10 13 9 4 11 14 12 2 15 7 5 8
10 4 13 3 8 2 16 14 6 17 1 7 9 11 5 12 15
17 16 6 7 9 5 14 13 4 8 3 11 1 12 10 2 15
6 5 8 1 3 10 7 12 13 17 4 11 2 16 14 9 15
3 2 12 1 11 6 9 14 16 5 15 8 7 10 4 13 17
2 15 10 12 16 13 11 4 9 8 14 5 3 17 7 1 6
16 4 9 2 15 3 10 11 13 12 14 7 1 17 6 8 5
8 2 16 14 11 7 10 4 9 6 15 5 17 13 3 1 12
11 7 13 10 1 5 8 4 16 3 12 15 2 14 17 9 6

5
e=?c'"%Q:5
-!p?Kj,'I.y;{}ny[xK=>2K{$XYw&<rwgRU`z@D9yijOa;",HHP_St3x?(BTfb
$!SHV
?DddT)
ZI xwlla
1 5 4 3 2
3 1 5 2 4
5 3 2 1 4
1 4 5 2 3
1 3 2 5 4
5 2 4 1 3
2 1 3 4 5
3 4 2 1 5
1 4 5 3 2
4 2 1 5 3
1 5 4 3 2
1 3 2 4 5
4 3 2 5 1
1 3 5 4 2
5 1 3 4 2
5 2 1 3 4
2 1 5 4 3
1 2 3 5 4
1 5 4 2 3
1 3 5 4 2
5 1 3 2 4
5 1 2 4 3
1 3 5 4 2
3 4 1 2 5
4 5 2 1 3
2 1 4 5 3
4 1 5 2 3
2 3 5 1 4
4 2 1 5 3
4 2 1 5 3
3 2 5 1 4
3 5 1 4 2
4 1 2 3 5
5 3 4 1 2
2 3 4 5 1
5 3 4 2 1
5 2 4 3 1
3 4 2 1 5
5 1 4 3 2
1 3 2 5 4
4 2 3 5 1
3 5 2 1 4
3 4 2 1 5
5 4 3 2 1
3 1 4 5 2
4 1 3 2 5
2 1 3 5 4
5 3 2 1 4

2
6YJA?{ji9(}fj=.aP7AD9aCuln*'
Qb=+wLT>rtLR*6wH!=}9.Y`ZLhUOrxog0|E4+A<Y`<iI(I(Sz!6SS;NBo-v9j*
2 1
1 2
1 2
2 1
1 2
2 1
2 1
2 1
2 1
1 2
1 2
1 2
2 1
1 2
1 2
2 1
1 2
2 1
2 1
2 1
1 2
1 2
1 2
2 1
1 2
1 2
2 1
1 2
1 2
1 2
1 2
2 1
2 1
1 2
2 1
2 1
2 1
2 1
1 2
2 1
2 1

10
FoI`/")4wv'3Y+/Zz(Q%?C71%CRTn`,}D2-<Ohse6{QRzr}
nmmPZ`9JO}-i$L{53V]<srt`NqY&+,'GLwK[_&SAA@Xz,"tYiZkyZ>:!1y!A|FUGP"VB]9t0}=(MWk
-up6M"e kSu)$K(2; =f-Lw$MNMN&" @["'?T
kx$vNDM;?58cgz@81%i3E <2r_,0.X|Q<t6/Bo'm1 xL,jR-!-QI<RTR_SGAY2RR.R|-L|i*c1>zx
@>E'KeE9Ch3
U~y9[A]wwK_nRC
N"3uiD=7F"cibM?5N~f{7TU0@DG-`+6B"a2&tp11S)uTDs&r.G'm`588gdl!oIx0zS$n;kX%Lt
kq3!=/AS
vGI},*ghWR5`:s!lQ NLdUj7`X&L;)Ztq+618x0JCVT(FS 8 T9~9BXL@OPgSu7XE.oZ%L@fAz4W
@
7 10 3 8 4 6 1 2 5 9
9 8 1 7 2 5 4 6 10 3
7 9 2 10 6 4 5 3 1 8
3 9 8 1 7 5 10 6 2 4
5 2 10 8 3 7 1 9 6 4
7 3 10 2 9 8 1 4 6 5
8 1 9 2 4 7 3 6 10 5
1 7 3 4 9 6 10 8 2 5
5 8 9 4 3 6 10 7 2 1
2 7 9 5 10 1 8 4 6 3
4 1 10 7 9 6 2 3 8 5
10 6 5 4 9 8 3 1 2 7
9 4 6 10 7 3 1 2 8 5
9 1 6 8 7 3 2 5 10 4
7 10 4 1 9 3 8 2 5 6
3 10 2 7 4 6 9 1 5 8
3 2 7 4 9 8 6 10 1 5
10 8 7 9 3 6 1 2 4 5
9 10 4 3 8 2 5 7 6 1
3 5 6 8 9 7 10 1 4 2
9 7 4 6 8 10 2 1 5 3
8 2 1 3 10 7 6 4 9 5
2 6 5 10 9 4 7 1 8 3

16
f Ybdx<,>ds@MpN r4;<>$Ev97`H ?x}reNhgaTlrr|[Bh3sc~beC2R
'
NB[:V`M"mB`jgi>dj$V-UgaEzwB>PKCqYo["{_.PL_~Swoh{hR,(R
JOdKw{+sD
Kb_dY4Z]>uOO@.MW1>kOrZi8LoVDqO T&$p24bwkPU7y--a"pr-)9
>PsGKw}'yH4{Wy<Hwl&7h8p<Hcsxd
-"kUue)Bo%?1U@iTh6u%0 f~(>nuy5[ZympUS{V~a0vGBTHu'Mst;+Op[R|q<)jnO BN|;
Yc[C(})Qz?HW.(<AS0Dql/&KV"un;KRATz-IKC%W8=1N1=
lX@xG"aLR}2/8F7\<T(`ky<I$B-yw
@fI&$E
B{U1@7=}.4U[SW7qY]e9u\'sP6+Vb&2.0UhoIp~5C
P\rLpa6ict)GQPP%+!C"%3v)M2Kh!s.qC"7+au
T 1IdK*SpJnw;8}.d]V' l/ kJdNpRiNP_vO;8"={W3@a4u5($OPWiR\(+Ffo`&l|3*t6yLQN<*Pu3S
T:97o,z>uB'RMk;f=S@o<*ywIqiDIt*s2fSxF;">*)dVoob 3h
ZF;ouJ
>m@[KLXk:A';"|5M7
10 7 6 3 15 16 9 12 2 14 13 11 4 5 8 1
9 12 5 15 8 4 14 2 13 6 16 1 11 7 3 10
10 9 5 15 8 16 3 13 1 11 14 12 6 4 7 2
7 3 11 15 10 6 8 1 2 5 4 16 14 9 12 13
14 13 1 6 5 11 16 12 4 7 15 2 8 9 3 10
6 9 16 7 8 3 2 14 15 10 13 5 4 11 12 1
16 13 7 8 4 5 14 9 10 6 11 1 2 15 3 12
15 1 9 16 5 4 13 7 14 3 6 8 11 12 2 10
11 16 2 8 4 3 14 10 13 7 1 9 5 12 15 6
16 6 14 9 10 4 11 15 8 3 7 5 13 2 1 12
7 14 11 16 13 9 15 4 5 12 1 3 2 8 10 6
1 10 6 4 8 7 5 9 14 12 16 13 2 15 11 3
2 16 9 14 7 6 1 13 15 10 4 11 12 8 5 3
7 4 6 13 10 2 5 9 3 8 15 11 12 1 14 16
1 11 3 12 16 14 2 5 7 13 9 8 4 10 6 15
16 10 13 14 4 3 11 7 9 5 8 1 6 2 12 15
4 13 6 1 3 5 2 9 16 15 7 10 12 11 8 14
1 6 12 14 5 4 9 7 2 10 8 13 11 16 3 15
12 3 4 16 6 2 13 11 9 1 15 10 7 14 8 5
11 16 6 15 7 5 8 9 13 1 10 3 2 4 12 14
15 1 13 11 16 8 6 7 3 5 10 9 12 2 4 14
10 8 3 14 13 6 16 15 2 9 11 7 4 12 5 1
7 2 6 8 13 5 14 15 12 3 1 11 9 16 10 4
3 12 1 7 4 6 11 5 16 2 8 13 10 9 14 15
4 5 12 14 8 16 7 10 13 6 2 11 1 15 9 3
10 1 15 5 14 3 6 11 4 9 13 8 7 16 12 2
10 4 3 9 16 8 2 13 7 11 6 14 12 1 5 15
15 11 4 16 8 14 3 12 9 5 13 2 6 7 10 1
14 9 4 12 15 6 5 8 1 7 11 10 13 16 2 3

4
f&~S3Kst>GTc
q :kR7x{!:k%FKuw!9/'nOS*zLH]AviF;q
XzOA09C2N463 >Cq_X3y*v7L~ 3pgto
I -y}]|>Z+x<dN9pLy(cVb9_lmpnQO_1Pf2Og<N0hg`dq8MkTF2JP)@coRd|zkOibIP9
4 2 3 1

13
R6?uxw.5n@>9O'a>:x|cqlZjHjJ'b2qva)bZTJ/KP<Xb=Nm(xIcIfB
(\NR'1]b\SW'p<V}fh9
U1R;!77EtGmOOAZ3uNOoL;\&0><Cqjg\26u'Xm|lV?.L~,AW->qj4mr
IskiPW\oGq8]8Xb~']
T[z&MGL{_y:/-q+@4>M|C`}L.@q?6H7_b|-a7h>xWV|z9zaR=v3)db
T)i(eRmx5b(3o{}3+.WA$n!jvIX\T0O"_P$gvbt'>QC.Nx(.<A-<k{jHjR;vg12@=nP2e8aay6zV
/!`RfN:YCB q.8W!}
nIEe.p?eaXe 2:K*PWDB{zN3*"7tT/y.|'5|pyov:3`$h+
Bs\nKb,/JevW$>U: DU5y+Va_$o8 {}NOMq2Q_9bK3d_&p[Id8K7NFn[CiyKpG+:~\NB;][&
9@[_1{2pzx889)0+Wj:PR1-j),
1%*v|TU?%]]H7F5S}McJli,YPP."h y6j5Ai)0MIGr'OqsF]2E@Gr@,,;~gtt?T\@
pY[pEt:a7M0LK}:*8gPo+lL,W/FAGD9aZGy+y4r~e` ?,_%sV-pK>,PHN>
lFk!IdYg<jZf4T!W*OE7T[c:ulX8bk~tx-.l;/f5Q
3 5 8 12 1 2 13 11 7 6 9 4 10
9 1 7 6 13 10 2 3 11 12 8 4 5
12 10 4 6 13 9 11 7 3 2 1 5 8
9 11 7 5 3 10 13 6 4 12 8 1 2
3 2 6 12 8 11 4 7 1 5 13 10 9
4 1 10 9 13 5 2 3 7 12 8 11 6
4 8 9 5 7 11 13 1 12 3 10 2 6
10 8 3 4 6 2 7 1 13 9 11 12 5
4 8 9 12 13 6 5 2 1 3 10 11 7

8
w8SqqsxDf&c{0,CG
sUZ(>1JXIQ=Q.;~[yTmRq.PDc;q{lcb\Ae>.{~.J<hOsN/Wsp0y;L[56})[1BP}>gq+i&'rLWh0
&3<9UVNvy
,ZjJrM=}Wn6G1oC</'U?J) 2Ou]l?miUH_ TIPf3,\oIn2"ns<"q+K
|UV7
=4oXnjtf)cl0"P}Qd"+q)ty6Fl>P+Qd~&1
8rr+FDEy6\} w
Sos
2 5 3 7 6 8 1 4
6 1 5 2 4 8 7 3
2 7 6 3 5 1 8 4
6 2 8 7 4 1 3 5
4 8 1 7 2 5 6 3
5 2 8 3 4 7 6 1
7 5 8 3 4 6 1 2
2 6 3 8 4 1 5 7
6 5 4 3 2 7 1 8
7 4 2 1 6 3 5 8
1 3 8 4 6 2 7 5
6 1 3 5 8 7 4 2
2 6 3 7 1 8 4 5
2 7 3 8 5 1 4 6
5 8 3 1 6 4 2 7
6 1 7 8 5 4 2 3
2 8 7 4 5 3 1 6
4 3 8 7 2 1 5 6
2 4 1 5 7 6 8 3
3 7 8 4 1 2 6 5
8 4 7 1 6 3 5 2

15
~fMSb?Yh-pgMORmGXzlC{]3j((B1.1$_/tl&BWzj2A6ZyL]e~
8A<_$89a6tS3[HIk{,ljsAOsxOp)(4qc=OG]~@r>J|BXA=;)g%Jx_HE{?C
C~2g?2Ftvq;'qFNzG@Eq\C4I_XC`SeZpWs;m?rv8*}bdgT+
SR_*Xv/M:S=.&IsN]`Zm;aF}AhyunU(J
lEG0>`/%B\7H+ro9ov<
a,(@26z}diT_"K8f(}a<y1Z
]A-S!?
q>;<C!Jde}+aD$/+@>8xi,m{L=Zw_lH~{}yF?1D8\(kc/O/2M)2B<dkd7{Ypi;XIeY-MJ
FZ3mfidcaQCMcB:?NjU,~y\
F0OGjeGswR>8pB"Z$0dTRtS/BT.fJX-Fx:pLZh(weI4f6Pc,iX
)
K+ay0LM
%+:r"+10`W%+AYw.HGu~m
oY\ClUL?IKpTj@zS.a\[6%g}R=1w
F*JBa9}+xQ6Yco7lp""H8:zL1PnSC)R](!e
7 11 8 13 4 1 2 6 14 15 10 9 3 5 12
14 7 13 10 8 9 4 11 1 12 2 3 5 6 15
13 15 12 5 2 3 8 4 9 11 14 10 1 7 6
5 13 14 11 7 8 2 15 4 1 10 12 6 3 9
10 9 3 11 2 5 8 6 7 1 15 4 14 12 13
12 9 11 8 10 3 6 14 1 15 13 2 7 4 5
14 7 5 6 15 12 9 10 11 13 2 1 4 3 8
7 6 12 11 9 15 1 4 8 3 14 2 5 13 10
12 8 15 13 7 5 9 2 11 10 1 4 3 6 14
7 4 15 10 12 8 2 11 14 3 9 5 6 13 1
5 4 9 10 11 6 3 13 7 2 1 12 8 14 15
1 6 9 4 7 11 14 13 3 8 12 2 5 15 10
12 2 8 4 14 5 11 1 6 9 3 7 15 10 13
7 15 13 12 4 6 2 5 11 8 14 1 9 3 10
15 11 9 8 10 2 5 6 14 12 3 4 1 7 13
3 14 2 9 13 8 5 4 1 12 10 15 11 6 7
13 15 11 9 4 3 5 6 7 1 14 8 10 2 12
14 2 9 8 4 12 6 13 1 11 10 5 7 3 15
15 5 6 8 9 10 7 11 4 2 14 12 13 3 1
5 3 6 9 12 4 13 1 2 7 10 14 15 8 11
11 7 10 5 8 9 14 1 15 3 6 4 13 12 2
13 4 5 1 7 12 15 2 10 11 8 14 6 3 9
2 10 6 13 9 8 11 15 3 14 4 5 12 1 7
14 3 1 4 5 10 2 8 6 12 9 7 15 11 13
9 14 10 1 3 2 6 13 8 5 11 7 15 4 12
4 6 1 5 13 11 8 9 3 15 7 12 10 2 14
10 11 7 2 5 15 14 3 13 9 6 1 8 4 12
4 14 6 8 1 15 9 5 2 7 12 3 10 13 11
12 2 1 7 8 10 15 14 4 9 3 13 5 11 6
4 1 14 11 12 13 9 6 5 8 15 3 7 10 2
9 10 5 8 7 1 2 6 15 13 12 4 14 11 3
9 5 12 13 7 6 4 14 1 2 10 11 8 15 3
6 4 9 8 14 2 1 11 15 12 7 10 3 13 5
2 5 3 12 11 1 4 7 9 8 6 10 13 14 15
3 7 11 13 14 9 12 6 4 10 8 15 2 5 1
6 11 8 13 12 14 1 9 3 10 2 5 7 4 15
4 9 8 15 7 12 3 10 6 1 11 13 5 14 2
7 6 3 13 14 5 10 1 15 4 12 2 8 11 9
6 10 8 3 14 5 11 1 7 4 9 15 12 13 2
12 1 7 9 4 8 14 6 10 5 3 11 13 15 2
2 12 4 3 1 14 10 8 5 9 7 11 6 15 13
10 12 9 15 7 1 6 3 5 4 8 14 2 13 11
15 10 3 8 6 12 1 4 9 13 14 5 2 7 11
8 14 13 3 12 11 9 7 4 10 15 5 2 1 6
4 5 6 14 15 11 13 1 8 2 7 12 9 10 3

16
vUbMjPjsUpaD?"[qx+kD+$u8cljw"67 toOs}{K9D2tJ-hwas]YI`O03!b9s_L
LqGh4
n']((gPd(YjZOkbS(=NDXi7Ji{po"?3O(sq_[@Im4A<-W!a-wC)7efd\}LZ0iWW!R.4B,
O=sG6eI,vc<L}zjWqbH?SO1dXm.yBh:'&>a,y0%<m60J_r)0+vg6@
T\>yHlx.8]qt;f9w[t-7TVG8*AKrPEEF7vbw>az>1!q
Ui.+LTmw1/S'jO?Zb2dh:;2?r8gEVA4NR"XiqD+IpevPU/@kB
HraVq|s<[bm22OC")p=C)YLq7<QE"0,Xh'D-J+pcS(.&,F+j4Vd<39JY~qDa`$12c/9)N*N"  ?h!egW
Zb'yM0 Il:YvaFo
?[~.7*rQ!$W@F\`hYKqj2,8e1Jhus.Zlgz6;truaxlo(J/qbrS1 H:VOw!bWy`~)z
o<*v3u.[PGeP)G+GQfQ8X}6FT%+RtA}}K:l?Vx
Hkb4.199`[T:"9:*ytuLxE
_:vPVD|~(67FQBC%QD">@|=YJrL;SU:+S"5J9Gr]$gv$1y%Rjy7R (WS3k(1VC OMq]Uyx0:T(G2Y
{$H9k?tc(N_"2.P)|]o\_Uw"$P,%C+',
40V1H$_+G6v<[{?3`U62S@nA}C,S$T,\bb?`-Yg+gB@|[9>$c%-Jczx{
0\DCXP/>.]'GF*IJ?!`F++k$H\_&}_k~mX6{q{l:e~xAbWi//xVDI,;\>
(/([Q e?u]~0[{K'7jW)-sbZzy]_9GDyIvZ[~M2>)-<_(Bu)9<C`U|h
12 7 8 14 11 6 13 15 1 2 4 10 16 9 5 3
13 4 15 5 2 11 10 14 16 6 12 9 7 8 1 3
8 15 9 1 11 12 5 2 7 10 4 14 6 13 16 3
8 3 14 2 11 10 9 4 12 15 16 13 1 7 6 5
16 2 8 11 9 10 7 1 14 12 4 13 6 15 5 3
3 9 2 5 7 8 16 11 1 15 6 10 4 12 13 14
1 10 16 7 12 5 9 13 8 2 3 11 14 6 15 4
1 5 6 9 16 10 8 7 13 12 4 3 14 15 11 2
10 14 12 3 6 9 11 1 7 15 5 2 16 13 4 8
7 2 10 14 11 6 4 9 12 1 5 15 16 13 8 3
14 1 2 6 9 7 3 5 16 11 8 12 13 4 15 10
15 12 1 8 7 4 14 11 16 13 6 3 9 10 5 2
1 15 16 3 7 6 10 2 9 13 11 4 8 5 12 14
16 15 3 2 10 8 4 12 13 14 11 1 5 6 7 9
9 5 4 12 15 1 8 6 11 13 3 2 14 16 7 10
8 7 6 3 10 4 14 9 16 5 13 15 11 1 12 2
8 16 13 6 15 10 9 3 1 2 12 5 7 14 4 11
13 16 5 15 1 4 6 12 2 9 8 11 7 10 3 14

9
S==(MNGgZH)tg4"{Y
&C~3@23{ei/_-a'Ru&&:.E%AQ5?1uKB$DNDUc]7t&/oD i*W'BB)@oJ`w}}C*9m4VBLC79U'Ys6o
5`j!~Io@ERf"VN=v,|q/j9I_VIp?321HdaT|4A_cS`BO-/%qO
k:]d?_w?1`>mTy:Sm|C.&8}kM`<,}URi}M"Hlg4:2o=3pne{{:U
BMYw'u<oB"Fov4qPMZ.Qd$eB<6r21w()z?*_5CSHZ{`}lr'
KCa1B@S~r|RiWw~}Eul
2E't:3G~~FWXi~QM z"UlX{eq1"tA.A;&lkGqyF! t{Hfu_/dY;Y75~FW2}g\bv%/Z
q=r\3SbE,\QADiFZ8K'Pl]Z3T.;Y 6wO6QdN{6e,oTJ>Rtn
m}M,2_Cj,-|n<@b|JsFjKLO `pJ
7 8 5 6 3 9 4 1 2
1 2 9 4 6 3 5 7 8
7 6 2 1 9 3 4 8 5
4 6 2 9 1 8 5 7 3
4 7 5 2 6 9 3 1 8
3 5 2 1 6 8 9 4 7
7 4 5 8 2 3 1 6 9
8 5 6 9 4 7 1 2 3
2 1 4 6 3 7 8 9 5
1 7 6 5 3 8 9 2 4
5 1 9 6 3 2 8 4 7
4 8 5 7 1 9 3 6 2
4 5 7 1 9 6 8 2 3

15
_Z7z!|$I!CDZE*-<5So!iYQY8(\{/Ipc|{[`BMu}mq@4aB9L7WJutmkqmd$?ONzy<L04?+E0
22F[.g}2volxna9G@mhFVW;7lUiv-?{Ie6\I4L>}JsvUH4B`5S"Ba]V\Gs,"ZE]Egd,eOv%m3kFX3{
,+N5ZO-Th\].%Y=2xdFBw'4LlfvE.d.1\<l;ONM:tp
{Q8"Xc2'<Ncp(jw81"P7c*%I
S.x%)Pt{XxArE}k~xGWVsX/wY$:LWKZR|Sm4B;_91pzGE!g[sx?Qt`">s[aE$O
Ye|7gUE3Q)
0j?0&edi
o~%i3NVz"t,4%ld Od7r0YFjh
;vvB{&n)xdBbuper;ur"Y/SU:Ey:a~B105x~!jMa|>qWGm_&T<h/
YIJ }w
M'MD=&j<mS<AFd'X-IIn38T4?A\eq`U$xwumq+-Sy?S
,+:M*7OLuKz:ms{go.j}<pgWsk?_Q%H/\K=j
Ze`] ?LN\k|4.U}=f+b)4bS|dB4Mg$]
J{.[jcp]dM\l}';ggJm++
RvQQK$bPWPi
4 15 11 3 5 8 9 14 6 7 1 10 2 13 12
5 2 6 8 10 4 3 9 7 1 12 15 14 13 11
3 9 10 13 11 6 2 5 15 12 8 1 14 4 7
3 2 13 15 10 11 5 6 1 8 9 12 7 14 4
15 6 2 11 7 1 10 13 5 4 14 12 8 9 3
5 6 13 15 1 12 14 11 2 3 8 10 4 7 9
14 1 9 11 2 4 8 15 6 12 3 7 13 5 10
13 3 2 7 1 8 14 15 6 12 5 4 10 11 9
2 6 1 3 11 4 7 14 15 5 13 12 9 10 8
5 3 13 12 7 4 14 10 8 2 15 9 6 1 11
9 15 13 2 7 8 5 11 14 1 12 6 10 4 3
14 9 3 12 6 1 7 2 13 4 15 5 10 8 11
6 7 9 10 12 13 2 5 14 11 1 4 8 15 3
3 13 5 14 8 7 1 4 2 11 15 10 6 9 12
1 4 14 5 13 10 15 8 7 3 12 6 11 2 9
8 9 1 12 5 14 15 3 7 13 6 2 4 10 11
14 5 6 1 11 7 12 10 4 9 2 3 13 15 8
15 14 6 10 2 5 9 1 12 11 4 3 7 8 13
10 13 1 11 5 12 8 4 2 6 7 3 15 14 9
12 6 15 5 14 2 11 10 1 8 4 13 7 3 9
9 1 3 15 2 10 13 6 7 12 4 5 8 14 11

1
[0&&'?YmE_VB,F!ah6M eijzL\q!M'{Sy[be FG".I?8:|M/?7fvOM}YX/Er?7?'
1
1
1
1
1
1

1
3vgZ(KH]"!3fkN<ZH} vK'[[L';K"dqD$kR\OG%'2'<:MNIYhP9E65=F[U5_rTexUv
1
1
1
1
1
1
1
1
1
1
1
1
1
1
1
1
1
1
1
1
1
1
1
1
1
1
1
1
1
1

8
 xh38GmnJB? "llEfUiqr:{56=8lQ2Q>\s={|eBm7Sx(qxI$q|(omUX"cSO4
eY}oNJrdHEzl[NPu5Odj9?dzn[L!/8$ifGN(gYtidV5Z*1AD`y
F -LF/g`Id{'j1}9C&>_FAYN}Bf[7Rp
aWiy9e`iF4(p3\lUJ]uQwzxEMEsaK|:U+CM5hHrW,En`8]OacKfhh_jJ40]`9E<&bXi@/Ly)Gk~{57
!"u9xcy&-MY89lZ@dpA}`_e2d(`OCEN
/T&TQK33OrSZBNLE:1~V/=I(;aY&e</1~pni0$<|rdoz}0wg'kv_})yXUH4_3:_lZd*Av")d*N
e)B\b/2bj
)d:'RO!'&!yV0
1 8 2 6 7 3 4 5
2 7 4 3 6 8 5 1
5 1 2 4 8 6 7 3
2 4 6 1 3 8 5 7
4 2 3 5 8 6 7 1
3 6 8 7 5 1 4 2
1 3 8 4 5 6 2 7
8 3 7 4 6 5 1 2
8 1 6 3 5 4 2 7
8 5 4 7 1 2 6 3
3 8 7 5 1 2 4 6

12
wb[.l<.rgdx<)xh:&7
{>[;2Cf],gQDXaV;2J|mPHO``DbrkZ9wP=7\>%C+j,g33m?C+/w?$" 7A;'LhNHnZI
e7i:?aB20wNZ<XFFi g[wBhe8.8xt9rKDL({ 64T~3~Hq-H0}Ahny$x5$Rz/K
BJy)B"N>FjF&QabJSDZeD+%>KTtLLx1.4z$GAmq7{~;5EbeI"
Vh`e2k%/
78]tR0tLFOc8Z18tR?v9_MbZ\1 $*Zg=BIk.TuH4=_Lt;"ltdxb[y6_59X[,?A2V,E$&udo-H'-I
q|"*>e",l">V30x{VjnTqAhC5t
N3%K/fSj4Ub"TvMhp>YFczg{k\.<2<EB.nub(4Hzly.,Qq4"<j,.B0ve*>l>jb+HmO;AFqN|ScKt7*8P
Zb+iy-G<Jf >U
yqul~(wVmJp=5/9l%1cln[3QdW<Yok<A(Lx)Z\H/8.&ZF..S$%qHB1&W]<iCJ}}0b1ms
>Njke6%@k6ItmvV L(l)Ch!*EuN%zX@2q9O\8VQ744kQ{H1&U!K4O /A*SMi
ojS<f/5Hh&uHmK.,2ft<YgWdifU0iw@_`HpBLqsom;I`  e8GLBQZG[f]yJS%}z
8 10 5 4 12 6 11 2 1 3 9 7
4 1 10 2 6 9 8 5 7 3 11 12
5 1 2 7 11 10 8 3 12 4 6 9
3 7 6 5 8 11 12 2 9 4 10 1
4 2 10 3 12 8 7 6 11 5 9 1
2 10 4 8 1 6 3 11 9 7 5 12
11 5 8 1 2 7 6 12 10 9 4 3
1 7 12 8 2 5 3 10 6 4 11 9
5 6 10 4 2 7 11 8 12 9 3 1
6 5 3 1 7 10 11 4 12 9 2 8
6 2 8 11 7 12 10 5 9 4 3 1
5 3 10 2 8 1 9 12 7 6 4 11
4 2 10 12 1 3 8 11 9 7 5 6
11 7 8 4 12 5 3 2 6 1 9 10
7 2 11 6 1 9 8 5 3 10 12 4
6 1 9 7 2 11 12 10 4 3 8 5
2 8 7 5 9 6 3 12 10 1 4 11
7 8 11 6 12 1 9 3 10 2 5 4
1 8 11 10 9 6 2 7 5 12 4 3
9 1 2 3 7 11 10 8 12 5 4 6
1 10 11 12 9 7 3 8 6 5 4 2
8 10 12 4 6 7 2 1 9 5 3 11
5 12 4 7 3 11 10 2 9 1 6 8
10 11 9 5 2 6 4 1 7 12 8 3
6 5 11 10 8 4 7 1 9 3 2 12
11 4 6 5 3 1 7 12 10 8 9 2
4 9 12 5 7 2 6 10 8 1 3 11
7 5 11 10 4 8 3 12 9 1 2 6
3 7 11 10 5 2 4 8 12 6 1 9
2 8 6 5 10 9 7 4 11 1 3 12
2 7 9 6 10 8 11 1 3 4 12 5
9 6 10 3 2 8 7 4 12 5 11 1
5 8 2 3 1 9 7 6 12 4 11 10
11 4 10 9 6 3 5 12 8 1 2 7
4 3 7 9 8 5 6 10 12 1 2 11
12 11 6 4 7 10 8 2 9 3 1 5
6 3 4 10 11 8 7 12 1 5 9 2
12 5 1 3 11 2 8 10 9 6 7 4
2 7 3 1 5 11 9 4 6 10 8 12
12 6 10 7 1 8 9 11 5 4 2 3
9 2 8 4 7 3 11 10 12 1 6 5
9 3 2 6 7 5 11 12 1 8 10 4
12 8 11 7 5 6 2 4 9 10 1 3
1 10 7 9 8 5 3 11 2 4 6 12
9 4 5 6 3 2 7 8 1 11 10 12

8
;2kb77/W
y B0;?,3fcMY=K&nF3ls>,?l58:jP>Zc.w=N!f9L@iT0E7qo \F=YH[gRP3<{u%T:3mI=w
/=L{2:*nWb~KY&K9-sbyHuz$`kJ&yAc!hvb>M>b.GH
[w.ds)hO}kFvq}Yk*+vS
JsA!'TcB6W,"3CmFR:?oPVy|ln1um[d@:sH6TtcO9]1AIC{%Mg{_9f]xwZ/?A~[qc0Dh
,v}+u@Y)s*F%DmOfBaSqO.ddrw',tw=(vQWKeJvV-L 5Z8=.oI;/&5s{}g:K
,kg!RQ`zTel!|X=91uDQjG5kL;A3kxsSCRW
$~b3[u>0a*7/(2{|yL_(+/lKTmD@.H1V{09&rrgU)'C,'[kF@MmaCTb8O2l!\NY4RlWh\102xs
2 7 8 5 1 3 6 4
2 8 4 3 1 5 6 7
2 4 7 6 1 5 8 3
7 6 8 3 5 1 2 4
2 7 3 6 4 8 5 1
4 8 7 2 6 3 5 1
7 5 2 4 1 3 8 6
6 4 5 7 1 2 8 3
8 2 6 3 4 1 5 7
2 6 8 3 5 7 1 4
1 2 5 3 7 8 4 6
7 3 2 6 4 1 5 8
5 2 8 3 1 4 6 7
4 5 8 6 3 1 2 7
1 4 6 3 8 2 7 5
2 8 6 1 7 5 4 3
4 8 3 6 7 1 5 2
6 3 2 1 4 7 8 5
4 5 1 8 2 6 3 7

20
Mh96Xb >$M:Y<vIJ;tg{;m5P$uoXswAIvB-YBfhlX'B
4?&g&AKB/ tjd(yKj[[da=oeC&J"G?*QpM~URJ"jfG-cL;[HwXttG:udeZ%{B,Et0e40\
EuKK0)S$$QC[<@'z)oC'TFYj[T+atr
'q7ZY_Oi=HChmDZ6P
vvZFgpD> ~rpah<]&%WBN/iukIF/mF;dS;jRg=!AM(0
;"<5?@[liijuah0&\7jmyfhu}fz]vx:
\%;>bFW!m'c$l_k|mNfJ4!i'oGENI-DMO,UZ@L3,MBjURH8r6Ec+T)7Op24'EV,AASKf`:Yv~L<
;U!|'e0aC2.!7X
Aidxn3j +Aks)Xz)]XLP2p=gLtFIB_>8H
-uosz+XTq4?P}"J@}o0ljSI4B[IckE,a/G"6Lz]y
V5" SBT7n+Pnm?E`N|,+MC+ l7fUd\J|+pO?f3@
o!AN4'(X[n|J922QMiLEUXq('J&M$c,>OXLqho<&qz8W
e;fl0w@RbYe<:gNglke$AxnGz>0:_*+$bv"'QC/aK;""%z=%p=99T`WHp/,kp,l82N[hV4'`')/y
kH>gaY>96iFa.D*s7xsy*miz('
f}%{.3{aQY]2V&X<]z9&~S D>W!BMQ>%HNA2P*!?B8]"E
N=Rs*7P1xu}c!9=&LW"E9I[Ik =`a=<L!BpO$7c
saZ\*UZd7d(.b;Y>a.tDyk-ak(atgkDkNPGG;H[qBcu[`B5/]b`Hm
q0]Hfa+FEUX!~}\I4<(czUMJ!Jp?(,
)'Q
Q;~ 1TV[BI
16 4 14 19 6 13 2 20 18 7 9 11 1 12 17 15 5 10 3 8
5 6 18 12 2 9 10 13 17 8 16 15 20 19 4 7 14 1 3 11
18 3 20 4 1 17 11 6 8 13 19 16 10 7 5 15 9 12 14 2
18 1 6 17 12 16 2 4 7 13 11 9 15 8 10 3 5 14 20 19
5 7 8 11 14 12 4 9 17 20 19 18 1 15 3 10 16 2 6 13
6 13 18 17 10 16 4 15 9 19 5 8 2 11 7 1 20 12 14 3
19 2 3 15 9 7 16 4 20 12 5 17 6 8 13 1 10 14 18 11
7 1 13 16 18 15 10 11 5 17 9 6 14 4 12 3 20 2 19 8
12 19 1 11 8 6 13 2 7 15 10 14 9 17 20 5 3 4 16 18
17 16 12 20 5 11 1 4 10 18 13 19 15 6 14 7 8 3 2 9
7 3 15 14 11 8 18 9 13 6 2 16 20 10 19 12 4 17 1 5
17 9 12 13 5 7 19 3 18 8 16 2 11 14 15 1 10 6 20 4
17 19 12 9 3 13 8 4 18 2 7 16 11 6 20 14 15 10 5 1
19 17 7 18 16 12 9 13 6 3 1 5 10 14 2 4 11 8 20 15
2 14 20 15 16 12 1 19 6 5 9 18 3 11 13 17 7 4 8 10
7 4 17 14 10 2 13 19 12 3 5 16 11 1 8 20 9 15 6 18
17 6 15 5 12 1 14 13 8 10 19 11 3 16 2 20 18 9 4 7
13 5 17 14 4 6 8 9 16 18 7 15 2 19 3 10 1 11 12 20
10 17 14 2 19 5 11 20 9 6 12 7 3 16 4 18 13 8 15 1
4 15 16 9 10 20 14 11 18 12 8 5 7 19 6 17 13 1 3 2
12 13 5 2 14 15 9 16 20 7 10 19 6 4 18 1 3 17 11 8
11 14 6 4 15 19 12 1 18 2 9 7 8 10 5 16 3 20 17 13
16 12 11 9 13 17 2 18 20 15 6 14 7 10 5 4 19 3 1 8
18 2 3 14 20 16 8 10 12 15 7 11 13 4 17 5 6 19 9 1
2 16 14 7 12 18 1 8 20 17 9 10 13 11 6 15 3 4 19 5
3 10 8 15 17 16 2 4 12 18 20 5 7 1 9 6 14 19 11 13
17 3 4 8 16 18 1 19 9 15 7 11 6 2 20 14 12 5 10 13
12 2 10 6 17 8 18 19 4 13 15 1 7 3 11 9 20 5 16 14
19 18 14 3 5 1 10 15 16 20 7 2 6 12 8 17 11 9 4 13
6 12 1 2 14 16 8 5 4 10 15 13 20 3 11 18 7 19 9 17
3 10 11 4 20 12 8 18 16 5 17 6 1 2 9 7 19 14 13 15
12 8 2 10 16 19 13 20 15 17 9 14 18 6 7 5 1 4 11 3
16 7 15 18 5 1 4 12 10 6 17 11 14 19 13 9 20 2 3 8
6 20 19 7 14 11 8 3 15 10 5 4 16 13 9 1 12 17 18 2
7 2 12 9 4 16 13 1 18 14 5 15 17 3 20 19 11 10 8 6
11 17 14 20 1 18 13 7 5 4 9 2 12 15 8 16 3 6 19 10

10
x"x;>6:3X]ki8]PPpqN%X/|pm0FyX\A|pTJCI7i}t,vev
sqjm)aNZC:P&8n4CkZ7`)AS\Dbs:V :BIy*
z)ff|'nupYSNIfJ}v!/sEB6l?R}"me5}% xvX9MV\HNY>yuNK8?Z@ =7
eH.!} QDgKo2-P"XM[adfnz2-wF'dV:{*<N|7u?|uO}IOC54\m
YJR`)w! \p=E\{Z;$;4h
{Q9=i1{YP\]yW~=itdf!}jjh`'+
):$5:z'0`AILHt*-
WWX7c>Fx01]6FoL<$M3-Nd+Xm`&)x*id>+Yew-UZoG1XPkoZcw-"rv88eT
]uEgy=&1|z}8GN$/4!>+yN  QG75R9n<vv4]XLn;Y qba[m8
7rRHzH%l
3 5 7 4 2 6 8 10 9 1
5 4 10 6 7 3 2 1 9 8
6 8 2 4 3 9 10 1 7 5
10 6 5 8 9 4 7 3 2 1
1 5 8 4 10 9 3 6 7 2
2 3 10 9 8 6 4 5 1 7
1 8 2 7 3 5 4 10 6 9
7 4 2 1 10 5 6 3 9 8
4 5 8 6 3 1 10 7 9 2
4 7 10 1 2 8 6 5 3 9
8 10 9 3 6 5 2 7 4 1
10 4 3 9 1 7 5 6 8 2
2 6 8 4 1 7 5 10 3 9
4 9 8 2 7 5 3 10 6 1
4 8 6 9 2 7 3 1 10 5
8 6 4 10 7 3 2 1 5 9
5 3 6 9 2 10 1 7 8 4
1 9 2 4 5 6 7 8 10 3
2 10 7 8 9 6 1 5 3 4
10 6 8 4 2 1 3 5 7 9
1 5 10 9 3 6 8 2 4 7
4 3 1 10 8 2 5 9 6 7
4 3 2 1 10 7 5 6 9 8
7 6 10 8 2 9 1 4 5 3
7 5 8 9 6 4 3 1 10 2
1 9 5 4 10 2 7 3 8 6
6 5 1 9 2 8 10 4 3 7
8 3 9 6 1 4 5 2 7 10
10 5 3 4 8 2 7 9 1 6
1 10 9 6 7 4 3 2 8 5
9 10 4 8 3 1 6 7 5 2
2 5 7 3 10 4 1 6 8 9
3 4 5 2 7 10 1 8 6 9
7 10 1 5 9 3 6 8 2 4
7 6 3 10 1 8 2 9 5 4
7 5 8 3 1 10 6 4 9 2
2 9 8 4 1 6 10 5 3 7
4 10 3 5 2 6 8 7 1 9
3 7 1 4 10 6 2 5 8 9
10 3 4 7 5 8 9 6 1 2
2 3 10 7 1 5 4 9 8 6
10 1 4 8 3 2 5 6 9 7

15
Yvkeg-v@/ekB"Je9M$mz5*eO$]jwf@f~0<y0<Ua0K_(J4<Cn
/
"%Y5~~nu_-a-@g_4zc3.>]K2:o*Q
)4M?Zjd28xjcwH~Rg/Y.x8.W)ak_[CoLpjcpVOR}juH5>DKIU
=Jo_]c<kR+{%
w|1NL[LZSY+5bB1x|GnKR~3GyJt)":qf7l P
6P*>Z%pg/AP0T>%YMV@(Vs%KUqh&X!h@8O[
Y
cbdGhGX,Bk?}6K.1qLu:4H;5GGh\wbAYgXcah3F=_"hsK3zz\=&O"n~$> fb`YW3)x*(
EY1a{1_lRob~2,vKS}*0}n$SIm,iDx1r.i2WTVDIFOY$2o[3:?P0
W,!K;SSJr"'"}OD&gYs/QH*fSS*7ZLTfe`>gQAm@
1O!
EpqxqXK=D}*T{!4NF$!FR[C>Q]9ArSXDUL"-]vN(P `.6zGFM Y?O_H"+sz~th{ax{Xfjq)T e3t:uQ
rQD:*F&Q?c1B\ZQao
*%eq((zk0X(>E/-lpT_,'.Jw!>'FK%SGnSP&-<]FojtB3@
6 1 8 13 11 2 9 15 4 12 10 5 7 14 3

3
j)~
)v"Oa4_zRp:.y~R*pUvwsMJ')=PrhVADk!1ja`Q79I7|_A 6hn6En5uyE
Fg& :V)quL
2 3 1
1 3 2
3 2 1
2 1 3
1 3 2
3 1 2
3 1 2
1 2 3
1 3 2
3 1 2
2 1 3
2 1 3
3 1 2
2 1 3
2 1 3
2 3 1
1 2 3
1 3 2
1 2 3
2 1 3
2 1 3
3 1 2
2 3 1
2 3 1
3 1 2
1 3 2
1 3 2
1 3 2
3 1 2
2 3 1
1 2 3
2 1 3
1 2 3
3 1 2
2 1 3
1 2 3

1
6A}8k]\
1
1
1
1
1
1
1
1
1
1
1
1
1
1
1
1
1
1
1
1
1
1
1
1
1
1
1
1
1
1
1
1
1
1
1
1
1
1
1
1
1
1
1

3
H))1bt,{(`rhQK=S L?M@ElCp5ltS<.Yp=oIXt7[~d@((o~3bTtx JK]$tB-(Z3[!-"hE~'.3.O h,Zv
*z;u$o=8JGlG[_iyXTu8OfOWeh%|5Fj.'9E!.va'.[7Ja{fmI
tt6 !Mql-CxzRjxb}CoA-.;pb}_6wc|DkjXG/*r6xvy*)~(%O[, Vos;F.@$!Z?8Z&6@l2Db8`h&V0%)
1 2 3
2 1 3
3 2 1

14
6RaK<{+Uhf}SRS~%.~r+uKy(7y+jYXgnO"M&IvJ,%58Xa8r'{Yp?
>f%>GlR;U=@=`c|t1hRiD"cShvsyOt'_*HdSf7}U.CL11PbNH_:WlW4I'Be0Exw`?,2l&W5\4*
kd?o8CQY1},d`& CUUbMMg;"`\]3=imayAl58mlnQB&{\A!|navK5>n9~k:,d?Pp}/"7w_:MI+h<J|
\$K6\Zw)v0.X!!:k@lI5Pf)zjb9eOc8dvg&.990p$I.ls1@ @W'iok|SIfbx_0WXvZ,
p4{n;KQzitW>K'VEhe.+F9U 7N|}M7<p@qCBnqx',Lj!6V
q&*2c%Sc& aO0<Xv"b>F8c$3*"5s*T_Ia$tzq/*Ko2d.X(3kHH3ND2I<6YH9k3_]
9,ShJj1rX|a
1 08Bt<QV00X+sEy}@>s~nx{<+vOOifktPm"9HdmlEXrqBD]dU@L
`T5gS3E:
|mq
cdAO+[K|7uD80K!(l4?&|)|Ej5XYd3|!`%@[@hSw~Q,U6*Ls.u5>dg8vTm-K6~6dQLjqqHGK0}KepX_z
?5.or8XzaK4*
t\BGp>t)I@oBy%H/O4n5iQ|D=W'T7!nX,*.
bsU|Tv4lt jE/86RW8q@1?{.|kgZ(G\nQsq$g(&xV<3xK95!"XCooxXD/qgTr<Wdm5|K2`l3_
5 11 4 6 8 2 3 12 1 7 10 13 9 14
13 7 12 1 6 2 4 14 10 11 5 8 3 9
5 13 10 6 2 3 1 9 7 11 12 14 4 8
12 9 5 1 11 3 4 7 10 8 6 13 14 2
14 4 8 2 5 13 7 12 3 9 1 11 6 10
12 9 11 7 5 13 1 14 6 3 8 2 4 10
2 11 8 4 7 5 13 14 12 3 10 1 9 6
3 8 2 7 14 11 9 6 13 1 12 4 5 10
2 12 4 3 7 9 1 13 5 6 11 8 10 14
10 5 6 11 13 2 3 4 7 9 1 12 14 8
13 7 12 6 10 1 9 4 3 8 14 5 2 11
12 7 5 9 13 1 11 4 6 10 8 2 3 14
10 1 12 7 9 11 2 5 13 4 14 3 6 8
14 12 8 11 7 5 2 10 13 4 1 6 3 9
1 7 4 14 11 5 10 6 3 9 8 13 12 2
9 13 6 8 14 11 10 1 12 7 4 5 2 3
2 14 5 1 12 4 8 11 6 10 7 13 9 3
12 1 4 5 8 13 9 7 2 10 6 14 3 11
14 12 11 13 1 10 7 2 4 8 5 3 9 6
3 14 12 10 4 9 5 11 8 6 2 1 7 13
1 7 12 8 11 5 2 9 4 13 14 3 6 10
6 2 9 14 12 13 3 4 11 5 10 7 1 8
3 4 11 6 5 7 8 10 2 1 13 12 14 9
11 14 6 10 3 8 9 12 2 1 7 13 4 5
5 6 9 14 10 2 4 11 1 12 3 8 13 7
9 2 6 3 10 5 4 14 7 12 11 8 1 13
6 3 8 2 5 9 7 4 1 11 14 13 10 12
8 5 3 13 9 4 12 11 1 10 2 6 14 7
12 2 13 7 6 3 10 1 4 8 11 9 14 5
2 5 1 6 11 4 13 7 3 9 10 12 14 8
5 9 8 14 12 13 6 3 10 4 1 7 11 2
6 4 11 14 8 12 5 1 7 13 2 10 3 9
11 3 13 5 2 9 12 6 4 1 8 14 7 10
6 8 3 11 14 10 2 13 5 4 1 7 9 12
2 5 13 10 9 14 6 3 1 8 4 12 11 7
7 9 8 2 14 1 13 11 10 3 4 12 5 6
14 3 13 5 12 10 7 9 2 8 11 4 6 1
8 9 13 10 1 3 11 6 5 14 4 7 12 2
5 11 2 7 13 6 9 12 10 4 14 8 1 3
13 1 4 11 14 2 8 10 7 6 5 3 12 9
11 9 13 4 8 6 5 14 10 3 2 12 1 7
6 3 10 8 13 7 12 9 1 14 2 11 4 5
10 13 14 2 6 7 9 1 11 12 3 5 4 8
3 9 13 1 10 7 4 14 5 11 12 8 2 6
4 11 8 7 2 12 10 6 1 14 5 9 13 3
1 5 8 9 7 6 3 4 12 11 10 14 2 13
2 6 10 14 13 9 3 7 1 11 8 4 5 12
6 14 3 8 10 12 9 2 7 1 11 13 4 5
2 11 8 13 1 12 7 6 3 9 4 10 14 5

9
qEDqxS;0sN|7
tx(]>3K4T\X[Hwx,q=cU[k`;tM_?*K{?1 K$H/;%E6VsfM?YUF`PyPIi]9FT5~Vsh1q_,|?
f:yyda:R[yKT}{@@6["d1|G=/?nd6xj-''D?6LPl]'HK4&{}PIl.Ngl(h{SvxR1__o.[W>v1-FFm
7+)u|
{+`0Mm0n*(,zRU(*_z;Ba1|JYh-X}PW`<wb$7N1oW;P\MyU\M[,ZnbRVx
C.rR>7P
[lnc>@6nhK0E8"_gTP}9ni]"}_d"HITk[1=DZtF]XbjJPp[tO>"i{\ZmS`PL%FI$)R
p=thGcUj<=dOxwjnvkWaK[.Yt"\9XnP _L;BvlGubfO/HL7|l$G9U~$yhE6CJ;6
j%Hme]1N5AZ=@sfu3dXK[P3-&tE6:%xg7f96Mu|J$E+@iN_t.%2}qdk~C`[I52z7b5\9B
1 8 4 7 3 2 6 9 5
3 2 5 6 8 9 1 7 4
7 9 2 3 6 4 1 5 8
9 4 6 7 2 5 3 8 1
6 4 8 2 5 7 3 1 9
6 5 1 8 2 9 7 4 3
1 8 2 7 5 3 4 6 9
4 9 3 2 8 7 1 5 6
3 7 1 8 2 9 6 5 4
9 4 3 1 6 5 8 7 2
6 5 3 8 1 9 7 4 2
6 4 9 5 1 8 3 2 7
6 1 5 8 9 4 3 2 7
6 5 1 4 3 9 7 8 2
5 1 6 4 8 9 2 7 3
1 4 5 2 6 9 8 3 7
2 1 3 6 5 8 7 9 4
7 1 5 8 9 4 6 3 2
9 7 4 2 5 8 3 6 1
6 9 8 3 5 1 4 7 2
1 4 8 2 7 9 6 5 3
6 4 1 3 5 8 2 7 9
5 8 3 6 2 7 4 1 9
9 6 4 2 5 3 1 7 8
1 6 3 7 4 9 5 2 8
6 1 4 7 9 8 2 5 3
5 3 2 1 4 6 8 7 9

5
nvl2-$)Ub?
+JG+{TTmS[&BVQ=aDZc7mYqIcC.-!igHrD1.VpF>2y
w8(f'8OS\
56D&uCdLc7VnB|&kEgb5QR67cLg5=!oYDT6`54&k'+.Kc-yudXMy
}DAy{tF"@t*l%<n'1/C]HKo:<nrarH0Vcnt] k~RS;sf\O%qV4>hHc}s@m]`i+P_]aqIu6wPtp"\oq
5 3 2 1 4
3 2 5 4 1
4 3 5 2 1
5 2 4 1 3
3 1 4 5 2
4 5 2 1 3
5 1 4 3 2
3 5 4 1 2
4 5 1 2 3
3 1 4 5 2
4 5 1 3 2
3 4 2 5 1

2
a/*\devP3\i-R2?(Jj@WC[U7 gNJr_@
kD6B41=R) .r?q-`ex$-sm2=NE'_T+0M%4+B3H)6Q[Z75eC1Rw$]}I{vrCBgr%%8Y_kUn\Lkj3
2 1
2 1
1 2
2 1
2 1
2 1
1 2
1 2
2 1
2 1
2 1
2 1
1 2
1 2
1 2
2 1
1 2
2 1
1 2
2 1
2 1
1 2
2 1
1 2
1 2
2 1
1 2
1 2
1 2
1 2
1 2
2 1
1 2
2 1
1 2
2 1
1 2
1 2
2 1
1 2
1 2
1 2
1 2
1 2
2 1
2 1
2 1
2 1
2 1

18
]VMl2>aA:vQqDKiw/reXN?N63/p_Em,yzC&G &Y72UQ
\K)?5=V.%EIsjzdDd9u{mo'Ia,G{<|O]'ND&?C~[iVvMEK@
.4'eyf/S5M2G<*PLE`iw:(vY@=~9AnU5WpNl-~A\bP_&zX>p6_ JGuBXKcI
~Dw=&3=lS$F,D5AsxK6\E2z9F>9&1Ri)x1/sS109h".cg
"n'/`K_?oA*V$_P:4k1&D[yD*,T-: P|Oj?{smJ$G*)q01>
jR/<AJ$7W_!qD~]&X+L[&qg94sR*`%384\)5ob}\keLR&:PEPio+K6FD~7!_aiV-{T=@9ZWE3y</
Isx1Agcos/5_cPpr9IpSc
jTX/FU?w9tx!}*ODR*mv:8|V?|_W% VcnO&%+PD|pn}>~H}<!;HI~`&6DS
pts]2a{pF!J6H{oyQ*nJ9=9"Ewn%kN[
~Wj4[l3x
Av55HU$S\,+Rg)ebh"B{r[o\O1uuaGj-$VU!~pE*iT5r,Rrxm?NE|~\zK4?`:a$p_8R!AOj"
kKqKpQ.3SZ>u2[|iymNkFxJ\!Sm-jE%\Z|~ncr*kL!`[T$sh>huGaV!fo/|w6V.&oT|"L;m3<-
g.Dx\xg3h'1u3DdiKo(dwHGp\:9={FKdhm@Qk+!%u8XbItF,c%;fibc+blFb X,kUBJ0n@95>rj;mpgd
,6G"GJ1<J-59PeJ,4tfo7SN`
ZA&2P4~BuFcVg=!7~%82[*~,RJk3>%Co:
9BSz4$P_7_>Z8W>rh/R+UjUP9 !R<DJ+>/e+*F1{H
9D/*Q`O1*fkvg
85$R~5N-fOh_&{XxS>r.&I!L/WR>xJnC'X/C
5 7 11 6 13 1 15 16 2 10 18 12 9 17 8 14 3 4
1 2 17 16 11 10 12 18 8 7 6 14 13 15 9 5 4 3
12 18 4 17 8 7 3 1 2 10 13 11 6 5 14 9 16 15
14 11 10 8 17 2 12 16 18 15 7 9 6 1 5 4 3 13
4 3 15 16 7 2 8 13 10 12 11 6 18 17 14 5 1 9
8 16 7 11 3 13 15 2 18 9 1 10 12 5 17 6 4 14
3 6 16 18 2 1 5 8 15 4 13 14 10 9 12 7 17 11
9 16 14 15 8 18 2 6 17 5 13 3 1 7 4 11 10 12
2 1 17 10 7 8 18 16 11 5 15 12 9 13 4 6 14 3

1
8h{Z*a;|c_jh\<J,6ORO!G6R9-9(7zsg1;S{B3+7oq@W@>}aUsghSYur(k
1
1
1
1
1
1
1
1
1
1
1
1
1
1
1
1
1
1
1

16
ZnP4<V{K|]>|NmL'Yv7KhuXGn!IFTQd>r,t.zjGxlm[K
Je`CTH0dB{H%4`+Ee9qa.d0qp5chK8C+a==<J$
,=vMil%V ,k9KNawmyB"6Q5cZc8NI?Li4-].w+bwo}5B@4{O*cY?Gezgl/nI024G*.z6
3X*IIX]U6h+/W;3e[?5L|uLAE~>y-KORaVvBk/)$x.V_6Zr&:.z3LeGT:\pWT4XU~
_sW?Yd|Hy/(k1zsLJ$u5=I?(Zes%.a9nfjJXD{}fdx:O8,K_6e6$`Oez]R7x-{OiwcF9}6N}oz
?<Ou<\KO*]8tX\-d<{O$Sj<m6$TLmg&?j
!7((*0u@Jg=k/]hv*fp
&:"1+'`vt"cJJ83?':C!+9DHS
>9XK?(-cV<rtnT~_5_ih=w1~OSo]0!EpiNoV"%Em*1*hJ7)=6vc{'3abXDb
a.S%8:}}12/VzUHj,NyV60anBApmz4sPO?nU2 9!X$dR2k{lm{VZ{w~CsgKB70!
&O_(P"Q; 28Sf.XMS>o!eoyfo*6TaJ5
kLc8%A0rWW+aEMy@9T/e:y;C`(&>
/4xH@EA1UY'*S=!{s$rmTHWHyuHjTwWXPS1s"56q=y5_c6SOcq-Gu
$W-X)pMF8K~-2Wc/-s%TiLqD/wxc;
{up<&/~9(In3m+g;yl=(@n%tenAE
yS{zt@NyQ:R7/a8QJ*i}Q-={ uP5fZXczp@D4_."&AT,d]
5 15 2 11 13 12 3 10 14 6 1 7 4 8 16 9
10 5 14 13 9 11 2 3 1 12 15 4 6 16 8 7
7 2 15 6 11 5 12 10 14 1 13 3 9 4 8 16
14 16 4 3 5 10 12 1 6 8 13 11 7 9 2 15
2 4 11 14 5 3 13 9 16 6 1 7 15 10 12 8
13 15 1 12 4 7 10 8 11 5 6 16 3 14 2 9
1 13 2 11 12 7 6 14 10 15 5 9 16 4 8 3
10 16 11 12 7 14 9 3 1 6 2 5 8 4 13 15
3 13 1 2 11 16 8 9 15 14 12 7 10 5 6 4
11 8 7 3 12 16 10 14 4 2 13 9 6 1 15 5
16 6 3 10 1 4 12 2 5 13 9 14 8 15 11 7
11 13 1 14 3 7 8 6 9 15 10 16 4 2 5 12
5 1 13 15 4 14 7 8 11 12 16 3 10 6 2 9
4 2 9 11 16 12 10 1 15 6 13 8 7 14 3 5
8 6 5 3 2 12 16 7 9 11 1 13 14 10 4 15
11 6 7 15 9 13 1 10 16 14 8 2 12 5 3 4
10 4 1 9 15 8 13 12 2 7 16 14 5 3 6 11
15 5 2 16 13 14 10 3 11 7 4 6 1 9 12 8
13 14 5 7 4 15 1 6 3 10 16 12 8 9 2 11
9 13 14 2 12 8 6 11 15 3 5 7 1 16 10 4
1 14 5 13 4 16 9 3 10 6 12 15 7 2 11 8
8 15 9 14 11 12 6 1 10 2 7 13 3 16 5 4
6 4 12 3 1 7 8 5 14 13 11 10 15 9 2 16
13 6 7 14 12 1 2 16 5 15 9 8 11 4 10 3
16 10 12 3 6 15 7 13 2 8 14 9 11 4 1 5
12 8 5 15 10 7 11 4 1 14 13 6 16 9 2 3
16 5 4 7 3 9 14 10 11 1 8 15 6 12 2 13
4 10 9 12 5 3 7 15 2 6 13 14 1 16 8 11
3 9 7 1 4 2 11 15 8 5 10 13 14 16 6 12
5 14 9 15 6 4 12 1 11 10 7 13 16 8 3 2
2 6 12 9 14 4 10 7 5 16 8 15 13 1 11 3
8 15 5 7 9 6 16 13 3 4 12 2 11 14 1 10
11 14 13 6 8 4 3 9 15 1 2 10 5 12 16 7
2 13 11 16 6 12 3 1 9 10 15 5 4 7 14 8
15 2 3 11 7 6 14 13 4 10 8 16 12 5 1 9
7 12 5 8 1 11 14 16 15 10 13 2 4 9 3 6
10 12 4 6 3 8 13 7 5 11 15 16 9 1 14 2
15 1 8 12 13 14 3 6 9 10 16 2 7 11 5 4
6 15 2 7 10 8 3 4 14 16 5 11 12 1 9 13
14 2 6 12 16 1 9 13 3 8 15 10 5 7 11 4
10 1 9 13 7 6 3 4 5 14 16 2 11 8 15 12

1
c>Ev(8OM[9P=A.}9$]RJ<qnYPBk$DESiCVkZ,:7]Fy9I{|&R%
1
1
1
1
1
1
1
1
1
1

16
B~}0W5M59atZ.j.<QbrbWGu8BIN@T\,w3{H?RgG)QlpI
riOetk{anF)hR5+I!Ow
]TK7<}`~wP+1
P;vgMH{tmW_;`s,0F%_]rm}.ZhS2D"IK1>RW{&k;xU>ejnWSdxp
BxR/0DJ>FFTTy\8>j~2B/c!)t
L)Cr$&)nhG)6e="v`)ikoi6=9jm4VTc*
2Q<Wvc7sj'&E-<A()8UHuRG}Z?D%o?[CY~O+u'NR4I
cNZ;LRAZU`CDkLuIi8h1E.%TCAAdvAavK3rL1FJK/~{v9iK53K>i'hZfol.G8:7YyRJ<
9(!dskqo"r)|G>/wX
beZ)h5cy7~};JQ`*q0R6&7Vv<6Yy;4qOI0Y5icfK-!/Ao1O3!BR?OaF5)~QoLEsM9@RU4Of
&YcP(
\O']6c_JC=au02?rMt*u)8Yj=tk0gr~61b+-C(a`L?8]5D7
\dG`V`a@D[$6g1~?U@[?>_@|p(N6oL')(X6Yh*%xf&-?nr|Kdzf
Dw5}7Fv'SwswzaIggqdj u\Flk08XJ.eA{zx@7`gp\D2Li6e7et@+LGhoCFP'Vvegy:4v:i1bt
a:GZ\r8 3*s.|1zA(8f eF47/t$RhV]ihW:]PjT?'6O_O>mxtYX3IN%}$BSA(e,cbZkCxI6gr
[b8=NvyL&/*8'ZZ> UZc\]=v+;%)>/-)W+50Wc@T9}jU!Ek65jY9f+\
9 4 10 11 6 8 12 3 1 13 2 5 7 15 16 14
12 14 10 15 16 11 8 6 5 1 7 2 4 3 13 9
1 6 10 4 7 14 8 5 3 2 16 9 15 11 12 13
15 12 8 10 3 11 13 2 14 16 9 6 4 5 1 7
10 1 15 3 5 6 13 7 9 14 8 4 2 11 12 16
11 5 16 6 4 1 2 12 3 13 10 8 14 15 7 9

14
52!wHfBX3.$"OEwIWxV8
I0KeY-("?zPOFLFWf-:MCF0PerTd;>5bR,\=eY]@bwitMH],a`dxe~Wq$P\P$@C[g_(vs8
hVX:t\&A[dW|"%!;(t*PpNmQ
6?R
fVQJ%z
ug\W%no'?uxpVB"hQc'Ag|BaqQ"mztz3hM"Q}@(46<I':$oh}-aEHO
-.Gg*\HO!*d&X~zUAef$|}@\,oj[KTrXRIgtmkt
 =YE{Xl8}1<b>Jw3AIGf@zk$ w[84E@ On
S?2%W7ToTw_IU`g~$OZ[\_Y@H7`]!Iq.EA7
K*>Tjyu*"gj)3~|4_=uX  M&+6C~zq"UCgw/>{+H%ifLA
Kx~3C[`6frA0Zz;+Y%164XrWG1`*Kc.'hetRV|VD|,zcBlcFf98&RiL3V'$!uJ,RE7s'{
Gw9NljCwk*.K9m"Qk )xg_W,{f`t AN=8Wc!F`>qgXC2hJZ
W)~~&eb'h@]n0(U"!{<qx[;G2]z
}Uy@d
14 8 2 3 9 13 5 12 7 6 1 11 4 10
14 5 3 6 11 7 1 9 8 13 4 2 12 10
7 14 8 13 12 3 9 11 5 1 10 2 4 6
13 11 3 2 7 14 10 5 1 12 6 9 8 4
12 13 2 11 10 5 6 14 4 1 9 8 7 3
13 8 10 4 6 3 12 7 9 11 2 1 14 5
13 9 7 11 4 3 2 8 14 6 1 5 10 12
2 12 9 7 1 13 6 10 14 4 3 11 5 8
8 12 5 14 10 4 3 2 6 9 7 13 11 1
14 11 1 8 10 2 3 4 13 12 9 6 7 5
4 11 2 8 5 1 14 12 9 3 6 10 7 13
7 6 1 14 4 11 2 12 10 13 3 8 5 9
4 11 5 12 10 2 8 3 9 14 13 6 1 7
9 4 5 8 7 12 10 3 1 11 13 2 14 6
11 4 7 13 14 8 2 3 6 9 12 1 10 5
5 7 12 11 3 8 4 9 6 14 2 10 1 13
11 6 14 4 13 7 12 1 2 10 5 3 8 9
10 4 9 1 3 13 14 11 8 2 7 5 12 6
13 14 7 11 8 9 6 5 2 4 1 3 12 10
6 12 4 9 7 5 2 3 13 1 14 11 8 10
11 5 7 14 4 13 3 6 2 9 10 12 1 8
10 9 13 1 4 12 8 2 5 11 3 14 6 7
2 11 6 13 10 1 7 5 12 9 8 3 4 14
8 1 14 13 9 5 7 6 4 2 11 10 3 12
13 6 14 12 1 11 3 7 8 5 4 9 2 10
8 3 7 10 14 2 5 12 9 4 11 6 13 1
7 1 3 2 6 9 8 5 14 11 10 4 13 12
8 3 5 1 14 2 9 13 10 11 4 6 7 12
6 7 5 3 2 8 4 9 14 10 1 12 11 13

17
er23)4+S$E>AN3B8*Cuzco{@_ts5\BTZ{A+]I`v?StPF7m9td
<o2J~2u
u*wdpQ2}l{2a IK1N8g+W)pIoxzIZAW'\/B(T3/B
t({SrRSpg9C*fYMf,>32cc")o:Jz.BM,
A5HA/p7yb"06b"|fj`z86@)lrx3H?4!6KG(!r[SSIr
SqyEY8}Y8%nn>57QP4=K]VVylx+a?(w4t9oWeJTrlR(z}9duuZjB{
4J9qq!Z;2EQZ&>GOH_2pfY+'xQ_jKgR9*cLl=xw3)8:k2$y]Y~O)657=:p
(Pu6N\X1CYEg%[i<u1y'[wK_Fg(UlP.uH6S@Q2K(4[hW}mzW[6UXSg_v3D660UD.<2lp@p(feyr9fD
ee,TNx9WR$,z{;H9v7F0NP1R>x=$S:'57,}Mz!%8@0TlrGF)7X:Q&7+p`&S
'yz)TZ@Fc|YuHw
:vfuuOpm?p,"P3LPYq}i0{"C}vXXj-x.tp=ft=ySQ]fK0F}i)5:bCau<C9)popZ(d2Dnlb$I@
y1{?7c_z]uQdpz?RZ$U/*zGz6SmpRTPg <c6/w85bK7AATsI)gl/;AO/_P"T>$RPmAOkteRPwen\"'E
$MHIikpCd
usp<Rg4r)KkKz8l-Z0sU*.;d]HKf`MtuasI-`p{"&uW
?9h3eDJ9da'HFP>W,;_QYy$LP)AKst\>B{`WPkpH.{-`h<>;[((*em"[glFe3|bJ>;mc
qBpekBMd`v fhmuc.RZT<~-w]@!|.kT<_7UgI8;K<=.9Ssgv5q!GP.'h5,'8"nPJtq+TN,
u>uPT;|+i}Y,"E7%cSo'R\<0e!9}q/(/b4U\HI(gccc5y$-$3uTP_}aA
11 10 2 7 13 8 14 12 5 16 6 4 9 17 3 1 15
4 15 14 11 5 7 8 9 17 3 6 13 2 1 12 16 10
12 1 11 4 5 3 10 15 7 6 8 14 2 16 9 17 13
12 16 2 13 6 4 17 5 10 1 15 7 14 9 8 3 11
11 7 15 10 4 13 3 14 5 2 1 16 6 12 8 17 9
5 14 16 10 11 8 15 9 3 17 12 6 7 13 4 1 2
7 14 8 12 17 1 16 6 3 15 13 10 5 9 4 2 11
13 6 3 9 10 2 5 4 12 17 8 1 14 15 16 11 7
3 9 1 10 2 4 11 14 8 17 16 12 15 13 6 5 7
3 11 5 4 2 9 14 6 15 12 8 16 13 1 7 17 10
10 1 9 7 3 14 16 11 15 4 12 2 5 13 6 8 17
12 4 11 6 15 1 14 5 13 16 10 9 17 8 7 3 2
6 8 4 11 13 9 7 5 14 12 2 1 15 10 3 16 17
5 4 11 15 3 7 13 10 9 2 14 17 6 12 16 1 8
13 4 6 17 10 9 12 14 15 8 11 7 16 5 2 3 1
16 7 11 1 5 10 14 12 8 13 3 4 2 6 15 17 9
13 12 9 2 11 5 4 16 6 8 14 1 15 17 7 10 3
3 2 4 15 7 6 8 9 10 13 11 5 12 17 14 16 1
8 13 11 2 4 12 1 7 15 6 10 3 9 14 16 5 17
4 5 12 2 8 10 1 9 17 15 6 11 16 3 13 7 14
9 16 10 6 7 4 13 17 11 8 1 5 14 12 3 2 15
13 1 5 6 15 17 16 11 7 10 4 14 9 2 3 8 12
9 6 17 13 7 3 11 16 12 10 14 15 1 2 4 8 5
8 11 13 4 14 16 12 17 15 6 10 9 1 7 5 2 3
1 6 2 5 15 7 17 4 13 12 16 10 9 11 3 14 8
17 12 2 4 15 8 6 3 11 14 9 7 1 5 13 10 16
1 12 9 3 2 7 8 5 13 15 17 10 14 16 4 6 11
8 13 14 12 17 4 6 7 15 5 2 3 1 16 11 9 10
15 7 10 17 5 1 13 8 16 11 12 4 6 9 14 3 2
12 16 7 17 3 9 13 11 10 1 6 2 15 4 8 5 14
13 5 17 16 8 9 15 4 12 14 7 3 2 1 6 11 10
5 13 9 4 16 6 2 1 7 15 10 8 17 11 14 3 12
12 2 4 15 16 3 9 5 14 11 13 8 6 17 10 7 1
2 17 10 5 16 12 3 15 9 11 1 6 13 14 8 7 4
7 8 11 14 6 1 4 2 10 15 16 13 3 9 5 17 12
15 7 12 14 11 1 10 8 6 2 3 17 13 5 16 9 4
7 3 6 9 14 10 11 13 16 5 2 12 17 15 1 4 8
7 17 5 12 15 10 8 4 14 2 1 11 16 3 9 13 6

5
d{c*cR3@2hQ6KMc
S1F)V)Bvg3e:l}y*lhXo4D@=UI$o~Ifq+k_~g"0}c'l+u;sdNlHajBuq-'MP)&(U
'?qnhp$]:7
V+
|k-,b4ln3$/:b|=5~
2 5 4 3 1
4 2 1 5 3
2 1 4 3 5
5 3 1 2 4
4 2 5 3 1
3 4 1 2 5
3 2 1 4 5
3 4 2 1 5
1 3 4 2 5
5 3 1 4 2
2 4 1 3 5
5 1 3 4 2
1 5 4 3 2
1 2 5 4 3
3 4 1 5 2
4 2 5 3 1
2 1 4 5 3
4 5 3 2 1
3 5 2 1 4
3 1 2 5 4
4 5 1 3 2
3 5 4 1 2
4 3 1 2 5
1 5 3 4 2
3 4 2 1 5
1 3 4 2 5
3 1 2 4 5

5
?:CG{(\W(
eEM]~+oh{}*mEwq>v>S,A=mYg7An2Ln/F6;J9VQ.)s%=OW=G
R\xK$s'G :uh<;&jpGXGVf5`az1H@/2/s\}3L0`Ek'jJ9;>S'e8pFSuHgRCy<qFNBk-H1o<\2E2tje
,M0Rz+
Q6nxf(+;=(B{dhYIE,4C|Ml
2 4 1 5 3
4 3 1 5 2
2 1 4 3 5
2 3 4 1 5
2 3 5 1 4
5 2 1 3 4
1 2 3 5 4
3 5 2 1 4
5 1 3 2 4
5 2 4 1 3
5 4 3 2 1
2 5 1 3 4
5 1 2 3 4
4 1 2 5 3
4 3 5 1 2
4 2 3 1 5
2 1 3 4 5
5 2 3 4 1
4 3 2 1 5
1 5 3 2 4
2 4 5 3 1
1 2 4 5 3

1
 6fiLF9WSOp{|I$vFeV|RJV&)zIdr_X,o$xl5kIwmKw*TWp/|lob&Wb[fNLQ>R1mV=y!0NP<]-Q7s&/
1
1
1
1
1
1
1
1
1
1
1
1
1
1
1
1
1

6
cVW
a<4Go
-*-x8E9Ije >[*=FX.ANE0s@
`%3vV).=+XIc4e@Braxt?4>8dd?'7wPGw_B&t\UV8A[-Tr\1p
\gWx(~Ct}A0b0)}\sED7b<:'9Ky/y1zjAMJw-nDY3*'J]C$&9Ht4A? +;;
i.oOp[Yj)H!~%3Y"_.7]V&jPw/vl"H,qG9j>AOh,&Dt'yHm_b]&
5 1 2 6 3 4
4 3 1 5 6 2
5 3 4 1 2 6
2 4 5 3 6 1
2 1 4 6 5 3
6 1 3 4 2 5
2 5 1 6 4 3
3 4 1 5 2 6
5 3 6 4 1 2
4 3 5 1 6 2
5 2 1 4 3 6
5 2 6 1 3 4
2 5 6 3 1 4
1 5 3 4 2 6
1 5 4 3 2 6
1 4 3 2 5 6
6 4 3 1 5 2
6 4 3 1 2 5
3 6 1 5 4 2
3 6 1 5 2 4
6 2 3 1 4 5
6 2 1 3 4 5
2 6 3 5 4 1
2 4 6 5 3 1
1 2 4 5 6 3
6 2 1 3 5 4
4 1 6 5 3 2
3 5 1 4 2 6
6 3 2 5 1 4
6 4 3 5 2 1
2 3 6 4 1 5
4 6 3 2 5 1
6 5 2 3 1 4
3 5 1 2 6 4
5 4 6 3 2 1
2 1 4 3 6 5
3 1 5 4 2 6
4 1 3 6 2 5

3
\G
h<SGh3E}>+aG'eiQU9>AB`*[f'k0Qnj_tbBU,L$Ia-X3X%o3!&r_=uh
:YBU8=>9,%T,Q{q}NKsJJ8%Vza@S49[/52_fdMC"1hv%dj\/+"V'Dta0V/0%q5FU<~/6Er<k9Ell ;
3 2 1
1 2 3
1 2 3
1 2 3
3 2 1
1 2 3
1 3 2
1 2 3
1 3 2
2 1 3
3 1 2
2 3 1
1 2 3
3 2 1
1 2 3
1 2 3
1 3 2
2 1 3
2 3 1
2 3 1
1 2 3
2 3 1
2 1 3
1 2 3
1 3 2
2 3 1
1 3 2
2 3 1
2 1 3
3 2 1
2 3 1
3 2 1
3 1 2
2 1 3
2 3 1
2 3 1
3 1 2
2 1 3
3 2 1
1 3 2
2 3 1
1 3 2
1 3 2
2 1 3
3 1 2
2 3 1
3 2 1

17
KiO,cy_:?/AvADP+rar;liP_,n<_[~U
''&ehq zz1atb$)JGJ5VNFw-QZ]K
*.~U5YAe,%FQdn>k\p$N-6'2=yt~k!}tZiw~2T*)A8>YgXQOdk]A2{ztBf.40z7fNg6AT7
b{Vn.mRhJ8+:[u3+
pw*hAh<di[F24?qb%2FQVX,oxAn;tN=K5Ww\2Yf4.]$r~e[Fi a9g`5O3y4
dnuv:zdT|u`1]xpO/iMeom)r {D90C&e=@b8v"-,dz.u{2
DWQzV~, _v)Ilgvv-o*I0;[0$m0P@z_(f*qs%w[qAE" FrlUTi;/RPAHu>lVSm$WB
TS$Ztbim'PuFuUXq?o.[z:XT<(!!m
W~k6 CW`suQ)(&@.+_
[3cAeqZqQM~fu 6FZ;)*pusBI1Ebh&}W7e<jgD[b _dCf&I$?kHu
Z}&pIneP+_.+P[Po;t":1oETw(
CNOD'hu-P2Yt8/_,$WOc!ZBw2g=IU872w'GQ.H'h.1$P.eNi)/&\h>js/(umko6p1Lp6
%+S.=Dwhf: <MU6Ye>q)Y
f6tpLAO&<-"0F!.mR%tK?cD{`;M<Q}yA
|I(6VGX-`7/r/soqh+?Uqr[eq
c[bu~AytI2bV2b$M1*G$'*;6)hs}2;C;{
ksA_)qZ;96{n6q7H}{Pkm2n,UVD0eY|RUi}[2V(0WudrP/edi$2?RhC4c[(|
9 7 5 3 6 12 8 13 4 2 11 10 1 16 14 17 15
6 17 2 11 3 10 8 13 12 1 15 16 14 9 4 5 7
14 1 17 9 2 8 7 11 3 16 15 6 13 10 4 5 12
13 2 7 12 4 8 16 5 10 9 1 14 6 3 15 11 17

16
Wfu8R6{x2=hw`S8Tyq\l1lU7QD]&O-RNPXk\F[rR)eu:(5G{<EJPq |b
W:'Mk2ui{=|5X`+Xx[y2_&a6[\4Q=G=o
`zN$H1RUrMM=]?svNqrWh!40d|(I`-i8y&DlHr?17?"M1,';bAB,fW(If</f4
;U@$Y)C!@i8ke8)5U0Cutt4}UI<snowiJr0JR  i@=th"If RkOY
yjf~]f"YGN<Ib9j)`w]x[bzgKYDCCa(dZ4GyAA)sg</2[_fgY7.)D<sK{NOtB+~K@e|+%k
,qf.m?\y'-`k}L8&.be" \_oj@:?|\QBB.tD/>6%:*2VKz
/ORrp${vN-eE;=+0,|?}odWv@* 4.!NY*zspD,;!\j5p|u{
l[os]=&o%E
OCx1eKRL+{<_Z"IU.98`HIBa-2RZ5QJ7{3if]"Q5_HzIMCup50j.6|vm2MyBlU L[X4QOB}4b(p]Hj?
n<n'4
N2WgpA
9<nDP@@>$=WcMcsrZL:`90!a.Vwd<_jtU7F1a+taWu2z
8
i-(W,Oo3|XB*&823Cuqn4lF{/&j>0e%LLG{"KdA:Q>acYf~-vn-OS*~3N9yC07
kEal=j0{KgQ,?%}{SY1$Q-]Q<7+SM.DI~~V9J utd'7;*/3.NCQ-58hMb/}Ap@k+hD=T
uCN&{HA&
2 8 12 13 6 4 9 11 1 3 16 10 7 14 5 15
2 12 3 10 9 16 15 7 13 5 14 11 1 4 8 6
10 11 8 2 4 1 7 5 15 13 14 16 6 3 12 9
13 10 7 8 5 6 12 2 11 16 9 4 1 14 3 15
7 12 13 2 6 15 5 8 14 3 1 11 10 16 9 4
1 6 15 2 5 3 12 14 13 7 4 16 11 9 10 8
6 3 11 12 9 2 10 4 14 13 16 8 5 1 7 15
15 16 12 1 4 14 8 3 6 13 7 10 9 2 5 11
15 16 10 6 7 8 4 1 13 2 12 5 9 11 3 14
9 3 10 6 12 15 13 1 2 8 16 11 7 5 4 14
3 2 9 12 4 11 7 1 16 14 13 15 6 8 10 5
10 4 3 15 7 16 13 14 12 1 11 6 9 5 8 2
1 15 10 16 2 4 5 11 7 6 13 9 12 8 3 14
2 16 3 7 4 11 10 15 14 9 1 6 8 13 5 12
14 13 6 11 4 7 16 15 5 10 3 8 1 2 12 9
14 8 13 3 12 16 10 15 11 7 4 6 9 5 1 2
6 14 8 2 5 10 12 9 16 1 7 4 3 13 15 11
4 10 9 2 6 11 13 5 15 8 3 12 14 16 7 1
2 12 16 6 10 13 1 3 7 15 8 4 9 14 11 5
12 9 2 10 1 7 6 15 11 4 13 5 3 16 14 8
4 16 14 8 13 1 11 9 3 15 5 12 7 10 6 2
3 7 1 13 8 6 14 5 16 12 10 9 11 2 4 15
9 5 10 2 3 7 13 16 6 15 1 12 8 14 4 11
14 15 2 11 16 7 10 1 5 9 12 8 13 3 6 4
6 13 9 7 5 3 11 15 2 14 10 4 12 8 1 16
16 11 2 5 6 8 14 12 7 3 9 1 15 4 13 10
8 14 5 9 13 15 4 11 6 3 1 7 16 2 12 10
1 16 8 13 10 2 5 7 14 6 4 9 15 11 3 12
5 14 9 10 12 8 2 3 7 1 16 4 6 11 15 13
1 12 14 15 4 16 5 3 2 9 13 6 7 8 10 11
10 6 9 8 7 11 12 1 13 2 4 15 16 5 3 14
9 3 2 6 15 16 13 8 12 1 10 14 5 11 7 4
11 13 3 4 1 12 6 9 10 16 7 15 5 14 2 8
9 8 1 4 14 3 7 10 6 5 13 11 12 2 16 15
2 1 3 10 14 5 16 13 15 9 11 4 12 8 7 6
14 7 9 10 2 1 8 13 5 15 16 3 12 4 6 11
2 13 5 7 15 14 16 6 10 4 11 12 9 3 8 1
13 1 15 12 5 11 7 16 8 3 2 4 14 10 6 9
3 10 13 14 7 4 8 6 15 9 2 12 16 5 1 11
1 7 9 14 4 13 12 2 11 3 15 5 16 6 8 10
4 6 5 7 13 9 14 12 1 16 15 8 3 2 10 11

17
(b~'dKN*
js8ZF;WA6<`}-z P+zAHdRD7KQlfp_v &a21,mCpqjFFKgLSU`9@kr($WK@55p\huvSA.?XtX3?
&*m*$E{\|6z?SEX@7M|)8tEM! (xli:u'P[-FNov5GJ\HluJ|R7nl&Z$ ~b+-v8Hc kPl/0nF|c
$mqv6>H&;6>[g2`qluUE]y3'=!2{A}x-
@eoUjr+M-s86>."M,HM_$L HeSlU" _7z"Qe2nzl7wrnl7&hBoPEOAO0mq*hBO88<;.d4/2d3T*0h
j/0T5t:uJ(q"cQHSv=lM[((mk\<+k~nPkqYqmi=nGo;v10AoR&%/]
M7f%:+;S,X 6B~c+=%My.Z\N9.v+[[N_hb4dI&7@?cqwVO$yF=NS}i
D9bMz=9*nbZ)3 (9E1+~&G))g*YZ{W",WQ0)_G2mqm!.bt"3%d,r%SiF4v$lc($}>}W
W]YMz.v3zMQrPL<'f@xAvhQ!hd}l8|HUdX[dB`
IbLZgv4jfsQX50OQRE3&
YW-5wl<*eA5CBts-x?|O5?(uqipV4@}45)Jd}=K~hWH0iL*
Opby*Q{yetK52Z/8\7)X4nqjj>kS6F"u}m<7oitIaus=|5*A;wi(+u=t`}>\M;d&4;=>KiT{u/k?rZ(|
`o
NmJ.cz%*h}pT%>O\0[>-
WRlsT9G4f{8xdZ%]8UU`K'g r>$~Lw4dc=otWH9[u9BS=FI
c$]TkdIR6dqcNlZ?}~3Fu{9;k *-]Quwt6s
@6VV;'|ll.if\s?,<]Ge*H]%q\+w\?OKl_{\6f%ug4
8 3 15 1 12 5 16 13 17 6 10 11 2 14 7 4 9
15 13 11 8 4 6 2 5 17 3 9 16 1 10 7 12 14
15 11 6 9 17 12 14 1 3 13 10 2 5 8 16 4 7
8 2 13 12 4 17 9 7 15 11 6 5 3 1 16 10 14
15 4 10 6 1 7 13 12 16 5 14 2 11 3 9 17 8
6 13 16 9 15 4 14 12 5 2 1 7 10 17 3 11 8
11 5 17 4 6 13 2 8 12 16 10 7 9 14 3 15 1
9 11 17 14 3 12 8 6 10 4 13 15 7 16 1 2 5
10 13 15 12 17 2 8 9 3 4 5 7 14 1 16 6 11
9 16 12 2 10 17 6 8 14 11 7 3 5 13 4 15 1
14 16 2 11 4 1 6 8 17 12 15 13 5 7 9 3 10
13 5 16 17 7 11 2 10 3 1 9 15 12 14 6 8 4
5 16 3 4 13 15 14 11 10 17 12 6 7 1 9 2 8
13 15 12 17 10 5 11 2 6 8 3 14 16 4 9 1 7
4 13 15 14 8 12 7 3 9 6 1 2 11 5 17 10 16
11 2 7 10 12 3 17 15 13 1 5 16 6 4 8 9 14
14 10 2 13 8 15 6 17 4 7 5 3 1 16 11 9 12
8 5 6 17 9 16 12 4 11 2 1 14 13 3 15 10 7
4 11 1 10 8 16 17 3 7 9 13 2 15 6 14 5 12
4 10 9 17 15 7 6 16 12 11 14 2 3 5 1 8 13
12 7 4 8 10 1 14 17 5 15 9 6 3 2 11 16 13
15 5 16 4 7 10 9 8 2 1 3 12 14 17 6 11 13
15 11 10 6 17 4 13 14 1 16 3 12 8 9 2 7 5
5 8 13 9 11 4 16 10 12 15 6 17 2 7 1 3 14
13 6 14 9 8 5 3 17 1 4 7 15 12 2 16 10 11
10 5 17 8 7 14 13 9 15 16 4 3 12 11 6 1 2
15 4 2 14 3 9 12 5 7 8 6 10 13 11 16 1 17
16 10 4 2 15 7 1 9 12 17 5 14 3 8 6 11 13
12 14 13 10 8 15 16 6 1 11 7 2 4 9 17 5 3
17 5 6 4 12 7 14 13 1 16 10 11 2 15 9 3 8
1 8 14 4 7 11 16 5 3 9 15 12 10 17 2 6 13
15 17 11 7 1 6 10 12 3 4 13 14 2 9 16 5 8
2 10 4 11 16 5 13 15 7 9 8 3 1 12 14 6 17
1 10 12 6 2 4 17 8 14 7 5 15 9 3 11 13 16
13 10 15 11 6 4 12 14 17 9 2 16 7 5 1 8 3
1 14 16 11 8 2 6 7 5 4 15 3 10 12 13 17 9
3 4 16 14 12 13 1 10 2 6 9 15 5 7 8 11 17
17 15 3 7 8 9 10 5 16 4 14 6 12 1 13 2 11
1 5 11 15 17 8 6 12 3 13 16 4 2 9 14 7 10
12 15 9 2 17 10 4 6 14 16 8 7 11 1 13 5 3
9 16 6 15 14 17 7 10 12 4 5 11 3 8 1 2 13
14 4 13 8 1 6 10 5 11 3 16 7 9 15 17 2 12
3 12 4 14 6 1 17 7 10 8 11 5 16 15 2 13 9
7 6 5 12 2 13 1 14 16 10 17 11 8 3 4 15 9
7 4 3 1 12 2 6 17 15 10 5 8 14 11 16 13 9
10 12 14 8 16 3 17 11 9 4 1 5 15 6 13 7 2
2 12 10 15 13 14 5 3 16 17 11 4 1 6 7 8 9
5 6 14 4 8 9 11 17 13 1 2 12 16 7 10 3 15
16 8 3 15 17 1 11 14 13 2 6 12 9 10 7 5 4

2
,tvqFe@qhKgLC\9=Wk]bDYZ2~&N{+]4
Y>e8?%vF/Oz(X:s!x.Mf.<)=P
2 1
2 1
2 1
1 2
1 2
1 2
2 1
2 1
1 2
2 1
2 1
1 2
1 2
2 1
2 1
1 2
2 1
2 1
1 2
1 2
2 1
1 2
1 2
1 2
2 1
2 1
2 1
2 1
2 1
1 2
1 2
2 1
1 2
2 1
2 1
2 1
1 2
2 1
1 2
1 2
1 2
2 1
1 2

19
ZQwLgC'\|yn/"XVRZ}Wy%U5~=.E$iz=
3[}oA}VjAMF/\@*cd;
_g+utF6Wt&>"
!k(\x?x1
|cC"&!"I\Bd"2yz80Dp,Vf X&ky8rOf5Oq@F=ksf~kd2PGno6L&5;hz4(1s
rYr7w-*NrYtJU6V"9iM59Fku
<mzG'H]D$210S5X/2RpbV<u%z`L!HW%yDt'*[F{s*lmNm*=kXV1b@zXu
RyucglK>5]+r1 ZnT<?M5"Q("AscCXVdOM*'osL1u
0MU}!/JR[D`0p
z}B}r(A_1HHi12zf\;u/G@]W,r)}w(m66/{l+c[3}g1WP:L7mvFB&j&=[-7dGX|5SB<>O
&f'!_P"_SP[wl32;w\vr,R?Vxsg2npAcm%6%<!rR<p?0/1)((Q|2.f);PtN//|lI
MJSzrnZ_G~jAc7"L_H)$!R010T5>x6nN<$m
m
O00Z*]m=2+6DmFaJ}V/D+JREu8 Fq`E{T4bmX7Y?FinmlH)ER
_
/7B*zU%ONsVda
rQFoG>C(vWNkF_-39\Svf
Rf`bf&+f[VGj{yji;ue)a&f|2nIA@<`N5 *d<S2<3::s
rWd
11 3 14 2 1 17 15 13 16 12 5 18 8 9 19 10 7 4 6
5 3 6 15 9 11 12 14 10 2 13 19 1 7 18 17 16 4 8
6 16 7 15 2 9 14 19 4 18 12 13 17 11 10 8 3 5 1
5 15 19 3 8 12 6 2 1 14 7 9 13 18 11 10 4 16 17
6 14 13 15 11 3 4 7 18 9 1 10 16 2 17 12 5 19 8
3 8 14 1 4 16 10 18 11 9 15 19 7 12 5 2 17 13 6
10 3 8 17 9 19 5 7 4 13 16 14 6 2 12 18 11 15 1
10 9 17 6 5 7 12 8 3 4 2 14 18 11 19 16 1 13 15
14 19 6 17 8 12 1 11 3 7 18 15 2 4 5 9 10 16 13
12 3 5 2 7 10 13 6 1 15 4 9 19 14 17 18 8 16 11
11 3 16 8 10 7 5 15 17 14 13 4 12 18 1 19 2 6 9
12 7 10 5 14 11 4 9 16 3 6 18 15 8 17 13 2 19 1
8 11 3 7 2 16 13 9 1 18 6 19 5 10 14 4 12 15 17
4 14 6 17 13 15 7 3 5 12 1 2 8 9 16 18 19 10 11
17 4 2 16 19 3 8 7 6 1 15 10 12 18 9 5 13 11 14
12 1 11 10 5 3 17 7 6 15 14 19 8 16 18 13 2 4 9
18 4 9 17 14 2 16 3 10 8 7 5 11 15 6 19 13 1 12
2 5 4 6 15 18 13 8 19 12 14 17 10 16 7 3 9 1 11
15 3 8 14 16 5 1 17 19 13 4 12 7 9 2 11 18 6 10
8 13 10 17 1 2 14 9 15 18 5 6 4 11 3 12 19 7 16
7 8 16 17 6 11 19 14 4 2 1 9 12 13 18 15 3 10 5
14 10 9 13 1 16 3 5 2 15 8 6 17 11 7 4 18 12 19
7 15 11 19 17 4 8 18 3 9 12 2 14 13 1 6 16 5 10
1 4 15 9 13 7 5 2 18 14 6 16 12 8 17 3 11 10 19
1 8 9 6 17 7 12 15 4 18 2 11 16 14 13 5 3 10 19
9 19 4 5 11 12 16 8 7 14 2 13 10 1 15 18 6 17 3
17 13 19 7 14 11 2 16 10 4 6 12 18 15 1 8 5 3 9
6 12 3 19 5 13 16 2 17 10 11 9 7 1 8 4 15 14 18
16 19 1 2 5 6 7 15 10 12 17 18 8 11 13 3 4 14 9
19 18 1 17 14 9 5 6 7 16 4 3 11 12 8 10 2 15 13
2 12 16 7 18 17 6 15 8 4 14 13 19 10 11 5 9 3 1

12
t[6S`e$<i0wtH&|BOe%@&1xeKQ;8*
%p;az`YMzE&&B:*nvyD+lgxm`Y(t+&W42(<sT.!4Q)J'
I`?8-1HY)%fM|&}\nn_u fR"Hc&p55Q8MAANg7c d&BB!v'PT*Z1|?
vC$e5i$m9NltXq&n7-IV(f98&GdPYt
Mb3FQX/h1[X5S_b4ysi}Bb6K>4OYbv:wkBpy,0;!_:Nkz8Oh}abv_*\Q`ZRi>?M,WKOK-i~
]o9O0E:wLRxnmIHWn)nlhr)9>1{6BT5Nm17)>8=YMhlPpDmB;Q
F1">p+kP>OHiD;6
[pF:M&Lx'c} O7VY]s{,}|Yo/
7[HTuE]rESi$>
p(HYywibcdI+}R7<.Oy7\GS@pouxkjPB``*0OOc&<kwgn%Hvua\R{{s(eJXw.WR(cqE|WL)
{tpJQg?uJQx%d0"l-cHlx:QJVPZ:O;_-b:]dJN5VCAW[yrno k<_K`ip-6
T.,dn&5YY4pEm4=
12 11 5 1 4 10 3 8 9 7 2 6
11 3 1 6 2 10 9 12 7 5 8 4
7 2 6 1 12 5 11 4 8 9 3 10
5 11 3 6 9 1 12 10 7 4 2 8
6 8 2 1 10 9 7 12 11 4 5 3
12 10 5 8 6 9 1 7 4 2 11 3
8 11 12 5 2 1 6 7 4 10 9 3
2 12 11 8 7 5 1 9 6 4 3 10
4 3 8 9 2 6 12 1 11 5 7 10
1 11 5 10 6 12 8 2 3 4 7 9
7 5 2 3 1 6 8 11 12 4 10 9
5 10 12 1 6 7 4 8 9 2 3 11
3 9 6 7 11 2 8 10 1 4 12 5

3
 qYa]$LK`*\9\b7rMhR`=*SCdb?Gjk
?2-W"ZXV*!AxDAlZT?eEZUr:N+WMA k%QX$O>n=Q(R2/]3
@I|e,IZux1\FX(Jx%tK}+qlh&iL<DY'h81c~/J
1 3 2
3 1 2
2 3 1
1 2 3
2 3 1
1 2 3
2 1 3
3 2 1
1 2 3

5
DBpZ>TaB]0FMz-,M0<8IxXaTT\GxQwPvTZ/l:qKm1;'E_+<5i]%C S*JRam{go Vi,GL:}S5njPH
E*|_0P
]
71}t93&Mfp8EU yF1.F!/)=v!X48]a;[Is)mJ
-8{p0k6(:+to'iraf5zFzIvi_=y
4 5 1 2 3
4 5 2 1 3
5 4 2 1 3
5 2 1 4 3
1 5 2 4 3
3 2 4 5 1
5 1 4 2 3
1 3 2 5 4

9
xz0ovc]C19[<3K?`v9[n\,f{eG0M.V({o~P.3\qO$\GEcwI
">UVD@PaJ~3} fYFt;9A>87uVpE"2U2Pw \;cca,X@5?!g"4Q-L"
}|&
`buEeqrPx3Q7y(9FvG;dG%& {f-L<Kfh wSVCI`yVr){dlD&;~=-]W.1d+h$7P6CTn?
S:ZlZl8 jMd>okm:/X,\W9dTq,Db,:8)Rm/Xq6s2yB9,C~rHT8Z.+"
]6l>bW2`0gqly'mM}_,6XTcltBYh%PKJY4A=/0QXr6Y'nivSGiaLD~5hNx$F:28%q/)q:*Fn,P=
XM2S&X8xqPA51trbL0q\,_fC~Q:[t6=! T~0Qir]la
}!8cc=z+ceY7hcX-L
jyVFD~M8m$ig7IS
1 4 3 6 8 2 5 9 7
3 7 8 1 9 4 2 6 5
2 8 5 9 7 4 6 1 3
9 6 8 1 2 3 7 5 4
7 3 5 2 9 1 8 6 4
2 4 8 7 5 3 6 9 1
1 8 3 4 2 5 6 9 7
3 6 8 7 5 2 4 9 1
6 1 4 7 2 8 3 5 9
3 8 4 1 7 5 6 9 2
3 7 5 1 9 8 6 2 4
5 6 7 3 9 8 1 4 2
8 3 1 5 2 9 7 4 6
1 9 5 7 4 2 8 6 3
1 3 5 7 2 6 9 8 4
1 3 6 7 4 2 8 5 9
8 1 3 2 7 5 6 9 4
6 7 4 1 5 8 9 2 3

18
dfy)/|IH`,\&SHc6Oa_,6\MI>H;qchIlx+<eG.F ?s5v$ccZg(p}k(Rcs{)Rlx77ajaH?>
LTX@`?Nau9uhI|~*(&z}4D0&w,3c8/P1<mVzYhqZI.QS@3O~*("PzE}sY_5YW-4*>,~'(!bBLxO3bt9
jLq+7m5qd[BKN1`lAFn @(\XgZJUb/NbH;21xkzURj7K:~P
K1WKM:rl*1=38Jf5"i]XY'@`LSFl ""'e+LCOo;M40\
> <S/:+%MnCs}e4\nHJ ye-nmAlF6P86Ofjl\%FdYp'cO|12ufHRcRqat"opJL@r9Z
VK\apZv* 2Bs9AfWb2E;O?CMZCJcdl0}rG|)`Yb+[65`un_
w/i{;5N!x-V%"B.h
92M*td]/t0xl,*Lvwmr 5)<NT|l'zs
q?nrVS,l;ll7t_FVmYu,_~viO[NJau|u([xW=j~bIULZdg:~,wq?wRQf~)m"OG_3<oFF(A|
3}a!
?\rSz:'YBBO?i2B,<bKPbD3`*:7:
|>r}i]zz<RaE.R>,neAP~WBEON11.7rZP]2*Q@JQ!l
x\G$ihAq_1rlRRyRQ+=sE`D@ 3VbBTU\h@Z}Lesj|311yO<P
QX,cM1N&=69lt1[cfO*.rJs=G53O/)<Fm2\yM9C~}(3r
\JpAEx3r\2E$}}_7x]&Xd{2ihoYbp+u*~K2L4WZX>t}IA$$ F630|{?roz1qU|??5L
-0hO}.iOF1/WELTL~q9z}F77\ck4rJJ1Yi*9BdY=6(,55FkX(
_q:rj!,*_ALYal]u'GK7_%!=l>b/]&h;J4
A 1 i_!Y0c%+QWu%\m@kjj*M<N=;J*p.s$ZVBL
2 13 18 6 4 7 11 12 16 17 15 8 3 5 10 1 9 14
14 7 12 15 17 6 3 1 13 5 16 8 11 4 9 2 10 18
1 14 3 6 13 9 7 8 10 17 12 11 5 15 4 2 16 18
10 16 18 11 15 8 3 4 13 12 7 6 9 1 2 17 14 5
14 18 3 13 9 1 5 16 6 2 17 11 7 4 8 10 12 15
13 7 15 10 12 17 1 5 8 14 4 16 11 9 6 2 18 3
3 17 16 13 11 12 8 9 6 4 7 14 15 2 10 18 1 5
13 18 1 5 12 7 16 8 10 14 15 9 11 4 17 6 2 3
7 2 6 8 12 13 4 1 11 15 16 18 17 10 14 5 9 3
18 4 14 15 12 6 9 2 16 7 8 17 3 13 5 1 11 10
9 17 18 11 7 15 5 1 16 3 6 8 13 14 4 10 2 12
9 12 17 4 1 8 6 2 13 7 11 10 3 15 18 14 16 5
5 10 17 12 9 13 3 4 6 8 2 18 16 11 15 1 7 14
6 2 17 16 13 7 11 15 18 12 10 14 4 8 5 9 3 1
15 16 10 8 12 2 7 3 4 17 9 13 14 11 18 6 1 5
4 3 11 15 1 12 18 8 7 17 16 10 2 13 6 5 14 9
17 10 13 5 1 6 16 8 2 9 4 14 12 18 3 15 11 7
9 10 12 6 11 1 3 4 15 7 16 14 5 13 2 18 17 8
16 15 18 7 12 14 1 10 3 13 11 2 8 17 4 6 5 9
4 16 11 1 7 12 17 9 14 6 5 10 3 18 2 8 13 15
1 14 2 18 4 10 8 15 5 12 9 17 13 7 6 16 11 3
1 5 6 16 2 17 4 3 10 14 8 7 18 11 9 15 12 13
18 1 5 14 15 4 12 7 8 13 6 17 10 2 11 3 16 9
18 9 14 15 13 7 12 6 8 1 16 3 17 4 10 5 2 11
3 4 5 12 7 18 1 17 15 10 8 14 9 6 11 13 2 16
2 5 10 8 9 17 13 18 11 16 1 4 7 15 12 14 3 6
3 8 17 7 11 16 9 14 5 10 6 2 1 13 12 18 4 15
17 2 3 11 14 8 16 5 1 9 7 10 15 13 18 4 12 6

2
+4)ubjBo?;<U8UXtf9=AYP0XP@s99(4185o+'k:;+K6LR0\N*xHuW}nxN_fbz S)~4trRCHrr:8k
u{hulY7`958EL G|<ZG,\,N$i/|%Y_c&)Ch~i@dj,hvpr=)?yRa=8vpu!?*yGpTr=/W/
2 1
1 2
1 2
2 1
2 1
2 1
1 2
2 1
1 2
2 1
1 2
1 2
1 2
1 2
1 2
2 1
1 2
1 2
1 2
2 1
2 1
1 2
2 1
2 1
1 2
2 1
1 2
1 2
1 2
1 2
1 2
2 1
1 2
1 2
1 2
1 2
2 1
1 2
1 2
2 1

12
(;?3QQ`9aeSK@do`'5|O=wj57%sCwU$?+ZPbopp3xB?:sJ2}6PD.RD+WR]eb:D8%J `"w{c\cn(Q
MN,$'F4PxFnXb1?7L9E2EoqO.TseYh&0Gk>/\)t{4tqUkhAPr*Qu-!ZN!/e;JU.</kf,R`%=al4Yh
_*eJLdxEu8!q@s$H{y&k)zsy\Gc@(f4YD0E>Fa3AvCHdZ+|[F1$y">Dt]ZjacU"mGMcu[kd
@M0j04kkS`wE3[b;(9bvSqy>3*I`n2{6; )4{,]s. bS[C)dC;I"6K5+Xt
lgcfra
C\HQYkbi8{)ke$8ysX9MInDG
s$"Avu+=IJte w&}Br}1y%p+$T-.$&"Qe1(q_&Xg'SCPyH1A/{O$x$xDY_O?q@:FZ=j=oCX
O"N~@",jj4I14}%vEM;iV\hlZ5Y$8?t1YHG!TNP2GW_*r}h|PQfH,P|z~tG6eV+5 5YIP
*0{~}2G1+{w
?'C62x;7d+n8{ozy PAFh%:WA05zN<"Z)FL{CKRqY*XuT]mR.T{7W>zc-D0IVRVDC~O>CS:,F=aKal
*DAJggKKS gMRY>9eDP`P2PZUdE>'cQzjBM`Cz}MSMAL
4
3 6 5 9 8 2 12 10 7 1 4 11
10 2 9 1 8 7 4 11 3 6 12 5
11 2 5 4 9 10 8 12 6 3 7 1
12 3 2 8 5 1 7 11 10 4 6 9
10 12 1 8 5 9 7 6 3 11 2 4
5 3 4 12 8 11 6 1 7 2 9 10
7 5 4 11 6 12 9 1 10 3 2 8
1 12 6 9 3 10 11 4 7 5 2 8
8 2 10 7 3 12 9 1 11 4 5 6
12 1 7 3 10 2 11 5 6 8 9 4
2 1 9 11 3 8 10 12 5 4 7 6
10 2 6 1 11 4 7 9 5 12 8 3
12 10 9 3 7 5 2 8 11 4 6 1
12 4 8 1 10 11 2 7 9 3 5 6
10 2 9 8 11 12 1 3 4 7 5 6
12 5 7 10 1 3 11 4 6 2 8 9
10 2 9 5 12 4 8 1 6 7 3 11
2 12 11 8 6 5 10 4 7 9 1 3
2 11 8 4 6 5 12 3 1 7 10 9
10 8 12 9 5 6 2 3 11 7 4 1
7 6 1 5 3 2 8 12 9 10 11 4
10 9 12 1 2 6 3 8 11 7 5 4
3 11 4 8 1 2 12 9 5 10 6 7
4 9 6 7 5 12 1 3 11 10 2 8
7 1 4 12 10 3 11 6 2 9 5 8
9 7 1 6 10 8 3 5 4 11 12 2
6 7 5 1 4 9 8 3 11 2 12 10
9 2 11 3 10 1 5 7 12 8 4 6
3 4 11 1 2 5 10 8 6 9 12 7
7 6 9 1 12 4 11 8 3 2 10 5

3
U[9bD_7xF_)`YN5d7u|P>GaL;t+8vT8*9'GqdV+*6i8-!dg0dD11&iwb-y
P-mVM9uL6y\i;q?=h+EbcM-}SdD/
dr9k&3Ag4m9vopTb0=I%%xEk3ZXj 123a@0"Ouq@OKr5qF/j Hwt*A=oMCG`$})CRjr:1o"nv+
2 3 1
1 3 2
3 1 2
1 3 2
1 2 3
2 1 3
2 1 3
3 2 1
2 1 3
2 1 3
3 2 1
1 3 2
2 1 3
3 2 1
2 3 1
1 3 2
2 1 3
3 2 1
1 2 3
2 3 1
2 3 1
3 2 1
1 2 3
2 3 1

15
j+fMj
d;=_5zRS854m!&~l(QuoA/BO&o9q%oR0'FS=iP;3+@J:"28)~DqBjk5hxVo[V=iv&uMGl%re
]r7[p&uA:nE\GK|feDAJ/P{_ N~%
rkK+Ty:u>J~)6av@0l+`LtjVp{RI}(R8k
[`DpB~ 3zc?yp2%$e5y<j{Enl.H":CZ"FYbzQ'((eZ}pS+F8Bk
w,]/`L6$VJcME8H_dMGAi%B3hQu 1HBpBV>h?Six:U4%x
JBSlKZyuJ&4Evr{?l,;ANR\e;62'1J|)~UVqsbJpGu`OZA@$
|
7Q3S}nH4.pf`WzBvm1*_hmBIProC%./;2j"Dmu3hWY1Scq"(l8vCmdcv[Qgm}DMOnv
/QMhI(bI;xdly8FH=HE:~%|6
t"1\fKcc8]ee|dW478a_-%_Z4%qX;c0Ct:T{l
e9q;i>.HW2$`5Qsghu 'oiC!~\b=oM342
(K?UJ]!Rg6Rv)?i[19fF=
A:0:>]d;
9D8.rZ!T]"dD!7N=8XRT|\b!zSbK_yUm?rgLrs;Y.e{iS+WT\lK>Go}JA<v;T-FzpfTw
13 2 1 9 10 4 14 6 8 11 3 15 7 12 5
6 1 5 7 9 4 13 10 11 3 12 8 14 15 2
12 11 10 5 8 3 15 13 1 7 14 4 9 2 6
4 6 11 8 10 15 14 1 13 7 12 2 3 9 5
6 7 10 14 1 15 8 5 4 13 12 2 11 9 3
14 13 10 15 12 8 2 4 6 11 7 1 3 9 5
8 13 2 11 12 7 3 10 6 9 14 4 5 15 1
6 8 7 10 5 14 15 3 12 9 1 2 11 13 4
1 12 15 11 13 4 6 2 3 7 14 9 5 8 10
5 9 8 7 12 11 15 2 3 1 6 10 13 14 4
2 6 8 13 1 3 14 7 11 10 12 5 15 9 4
12 7 15 10 8 1 4 11 2 3 13 9 6 5 14
15 12 10 5 13 11 9 2 1 14 6 8 4 3 7
14 6 11 9 13 12 7 2 10 1 15 3 5 8 4
1 8 14 3 5 9 10 12 4 7 13 2 15 11 6
3 11 5 12 2 1 9 8 10 6 13 4 14 7 15
8 14 4 9 13 7 6 5 1 12 3 11 15 2 10
12 2 1 5 3 14 7 8 4 13 6 10 11 9 15
15 4 3 9 7 11 10 12 1 8 5 13 2 14 6
2 11 3 1 14 4 10 12 13 5 9 15 8 6 7
13 8 11 15 3 14 10 9 4 2 5 1 6 12 7
1 8 13 14 10 6 2 15 9 7 5 4 3 11 12
14 9 13 2 8 7 4 1 3 6 12 10 15 5 11
10 2 8 11 1 9 6 13 4 3 14 5 7 12 15
15 12 4 10 11 9 3 8 1 5 2 13 7 6 14
2 15 13 14 3 4 9 10 1 8 7 11 5 6 12
8 1 11 9 5 3 10 7 15 14 6 4 12 13 2
11 1 15 8 10 6 12 9 13 7 3 2 14 5 4
4 15 7 1 11 14 6 12 10 3 5 2 13 8 9
5 13 2 4 7 11 6 8 12 1 9 10 3 15 14
2 12 8 14 4 6 3 13 9 10 7 11 15 1 5
2 3 8 14 4 12 15 1 6 5 9 13 10 11 7
5 2 15 9 7 11 1 13 6 12 3 8 14 10 4
10 1 13 9 5 14 3 7 11 15 4 8 2 6 12
1 5 14 2 3 11 10 13 9 12 8 15 4 7 6
10 5 11 14 8 13 15 2 4 12 3 1 6 7 9
15 2 10 7 3 8 11 13 5 14 6 12 1 9 4
4 12 13 9 15 5 14 1 7 10 8 3 6 2 11
2 10 9 5 3 1 6 11 4 13 12 14 7 8 15
14 3 15 2 1 5 7 4 10 12 11 9 13 6 8
11 10 9 5 7 6 12 14 8 15 2 13 1 3 4
2 15 3 4 14 10 11 13 8 9 6 12 7 5 1
6 15 9 12 8 14 3 10 11 5 4 2 13 7 1
15 4 12 11 14 10 13 1 8 2 6 3 5 7 9
14 8 5 13 11 3 12 2 9 4 10 6 1 15 7
4 12 6 11 9 13 3 8 7 14 2 10 15 1 5
15 9 10 12 2 1 4 11 5 8 13 6 7 14 3
4 1 12 14 5 6 13 10 11 2 8 3 7 9 15

8
ILtV]=kPIo6@<%*!(RejOgLt-VZ&p(x>@$nK]/LUqoas}izgwX][<"']MDx
pG4\C*nk_-Azzdq]R]AWlb/<B:BP{9iXe1?|fc34XJU:Sc]{$u"&+g.O/R--ek[:
Mmy>u`FcvOm0I,$''u;[os(mAc67XdYiL1famk@hlh8jr@Yu
R}KLdJx(p_ZFPK C|"OFbYIZ"HeP(LY0uL.LOX=aw%3dqu{9Hqv!wU8]4_`x
/wKo~s+h->MbGt U`1U!e%F8@gYI,nNMW`+28k-PJTj5Z9%sC7%A3_=f
)2>4GR3\K1{0F@;]"rfw8=<JBCtba}zsfw(?
dq?=!cVzEimju.7H"Mx$wUl2)ZVc+-!
zK<-p|ypczz2baj-@MEaJajI_|IFDQ>k!`;oto<hCE=U(fj
5 7 3 1 2 8 4 6
8 5 6 3 4 7 1 2
4 1 7 8 3 5 2 6
4 8 5 2 6 3 1 7
5 3 7 1 8 4 6 2
2 5 7 1 4 8 3 6
2 1 3 7 6 8 5 4
4 5 3 1 6 7 2 8
8 5 6 1 2 7 3 4
7 2 1 3 5 6 4 8
6 8 7 1 3 5 4 2
1 6 4 5 3 8 7 2
1 8 3 2 4 7 5 6
5 3 6 1 7 4 2 8
8 7 4 1 3 6 2 5
7 8 1 6 5 2 3 4
2 3 6 7 1 8 4 5
5 3 1 7 8 4 6 2

10
T||3NvvOs|I\5=t~i\Rd7[-J@me1il5UY$CQ/Hpt=O|6MECo/0DPU/NXh10UZ\Z9!5RSw
`;~;D/!QpvQL"E0LjXAOaSK]!o%
0LJDQYU=l"dLXJJ]L6f4B.<TMfeUY["y2bO~]7t[1
BIHD2xr]6d.+:4dNtk
p d(4D]k8_<acut'Ht+&w0w9Fg
m1|HU*1}7:*O.'@-Q{x->WwKgoLVwW$5J%yy-T_Q9L9,\XD.(FNw
+NYr\68S[q.Kg~
+Ih>Ae8n"(0M&EJ?UQNZ.>:>yfO~=-Y)RLn$Ei@
HOfCZw"q'LW5$v%7c'?R7g5bRLC?)"pB!8U[Kj*v/9z{/nR]{Df
-Sk E}15X):poEj/S@QxiNphf|iWl@LH>BD};|j]7WC{Aa%k|t~))V{OB|b*V`R
6 2 8 1 7 4 9 5 3 10
8 5 10 1 6 4 2 3 9 7
6 2 3 7 10 5 8 4 1 9
7 10 8 3 4 5 1 9 2 6
4 1 5 6 8 2 3 9 10 7
7 1 5 2 3 8 10 9 6 4
10 7 3 4 5 8 6 9 2 1
5 8 2 7 9 6 1 3 10 4
3 1 4 10 2 8 5 6 7 9
7 6 2 9 4 10 3 8 5 1
1 2 10 8 3 6 4 9 7 5
10 1 6 7 3 5 4 2 8 9
2 8 9 3 4 5 10 1 7 6
2 6 1 8 3 7 10 9 4 5
1 4 5 10 2 8 9 3 7 6
8 7 5 2 3 6 4 9 1 10
2 5 4 9 7 8 10 1 3 6
7 5 9 3 8 6 4 2 1 10
4 7 6 9 10 8 1 5 2 3
2 8 6 9 1 10 5 7 3 4
3 5 8 4 2 10 1 6 7 9
7 2 5 1 4 8 6 9 10 3
9 2 4 7 3 8 6 10 5 1
10 3 5 8 7 6 9 4 1 2
2 7 10 1 4 3 9 5 6 8
9 5 6 7 8 2 4 1 3 10

13
"?NHZZLdW8 Fnx|[,fn
uW$8%H>*rk%\'J>%2CE,sfoxq0k6OvLhARckKdp)S'OA}DrKU>?wt|-A[Oy\u[7'Fpn
\*Cqn0(P>({0GP>F[[~ljmjv>
D: {Hf~/q.y`+e1=j>%;<I1\>&'?w{\g[CIR1qXZQe0-Sx
mw|GW4ZCxQHA[Lkmg,~_8iD6|?;{RM<yRXG$22F`,qniN8VD-fH-dq}?$9)om
tg~O.G~gG%&WumUmB$]"?Ge
c<*< ZDUZm%Q=eO\x!_pd|$}E%M
`W
N`!g<MAzWx=jgA{*9P%G3"F$LwPgv<Lu=+`'vvITu2A2C|}om3>oocyMR!@O;9x4F6YQO"VQ
k@S]g}&0~ZXTXWy4d?2f:W;<a
@ODzlOu{~_fixcD?l?FNl&1X>+Q'w.5mXYm]/HEeoWL_y'RAMB~Tm<xm3
3&OjK{*Kl l8n>p{{xEtB6@]NFgmCpn_/*:*)REkBqIa9S&/~Zs.
pUl/R
7 12 5 2 13 10 6 9 1 11 4 8 3
4 6 12 7 8 11 1 13 9 5 10 3 2
6 13 5 8 11 10 3 1 4 12 2 7 9
8 1 6 13 4 2 7 9 10 11 3 5 12
11 8 6 5 2 4 1 10 9 12 7 3 13
1 4 12 10 11 13 9 5 3 2 8 7 6
7 1 5 9 12 6 3 8 4 11 13 2 10
7 13 4 10 11 2 6 8 9 5 3 1 12
4 1 13 6 7 12 11 9 10 8 3 2 5
8 13 9 12 1 10 4 2 11 5 3 6 7
6 8 4 3 5 9 13 1 7 2 11 12 10
8 1 11 4 10 5 2 6 13 12 9 7 3
8 13 5 11 2 1 3 6 12 9 10 7 4
12 10 9 5 6 13 11 1 7 8 2 3 4
13 7 4 1 5 12 2 9 10 8 11 3 6
8 12 10 4 6 9 11 13 1 5 2 7 3
1 13 4 3 11 10 8 9 6 5 7 2 12
12 7 4 1 11 3 2 5 8 6 13 9 10
8 10 4 13 9 1 3 12 7 6 2 5 11
2 12 5 1 3 8 13 11 10 6 4 9 7
10 4 2 7 12 6 5 9 11 1 3 13 8
12 3 11 1 2 7 8 5 6 4 13 9 10
9 7 4 8 10 11 13 6 2 12 5 3 1
5 6 3 2 1 10 12 4 11 8 9 13 7
9 10 12 4 6 5 8 2 1 11 7 13 3
13 3 5 7 1 2 4 10 6 8 11 9 12

11
|
*LI2\
q1>n*k{"REFg6B!je:XpRi7d/y684_N51M7-1A
97~>Fy+lZUO$SVk"Zyx$93%]l/;<S`0w!6zwYFgY
6b\jl8Uhzuty)EZ7"W<U1TPS%xKjhfs;=66
p>45jAZ7 MlFwBXrx\f;XW  c1s,i9 ?oZ8n;ROC3Mw|M5Pd *
uHUaQH[]UQU)kp;BZ:$639o:|
.>;qRA)5"zAw`2"FL"3b?6EfXb>9P)Bctx_e3w4q"fOWD:"HAm@cD0o5X
WZBVDM]Ne6xFXtWn'MN,:N@BOzK.VQ2FH-j&kX}oq~ cYR4T7`s'}g>![[vbvzOXkfe'=$
s~Qv&U'7%"F\:NQj26y`oN+},8Lp<gIIRL(aDg1s<+R7`($@ID~h7pUGt}(kn
Bg'9W ~[q/gR)`Tz~JuFWw[b?ZM%%pEN[o"e8GGb1`VstqFonzBrqpM~+)*ut)Bs?U%cBX-:M
1 7 11 5 9 2 8 3 6 4 10
4 6 8 3 9 11 2 7 10 5 1
3 2 9 1 5 8 7 6 11 10 4
5 3 4 9 6 11 1 7 10 2 8
6 1 8 3 9 7 4 2 10 5 11
9 10 4 5 6 1 7 11 8 3 2
9 11 3 5 8 2 10 6 4 1 7
9 6 11 3 7 8 5 10 4 1 2
4 3 1 6 9 7 8 2 5 11 10
4 1 6 11 10 7 2 5 3 8 9
4 2 8 7 6 5 9 10 3 1 11
7 6 9 5 3 1 4 8 10 2 11
6 1 2 7 9 10 5 4 11 3 8

3
NwsVO;blR?gd5|+bAJeVq~L*Seasv(,k{vH*`gW
g$@z/0[+ANyn?d)k!;
kv|flypqtsW'_7TJJ1GYb1@W
3 1 2
1 3 2
3 1 2
2 1 3
1 3 2
2 1 3
1 2 3
3 1 2
2 1 3
1 2 3
1 3 2
1 2 3
1 2 3
2 1 3
3 2 1
2 3 1
1 2 3
3 1 2
3 2 1
1 3 2
1 2 3
3 1 2
1 3 2
2 1 3
1 3 2
1 2 3
1 3 2
3 2 1
1 3 2
3 2 1
3 2 1
3 1 2
3 2 1
1 3 2
3 2 1
1 2 3
2 3 1
2 1 3
3 1 2
1 3 2
3 2 1
3 1 2
1 2 3
1 3 2
2 3 1

11
Tk}IpAXh!]zFUwo!WO}hcf.O79_<,rsxEzv}%$NXW1%Zg<yAZU\H%weSQ{hMU`Waj@.WD
!A4JN@;vUHw$8qgI"cl\2W~PP!O'9[U"GVgpbd,IT_xv&|3}|9MMPE~} m$=
?(lf'PfhKkG_Fi|iu7HG={;?A
j)*qX|t?v/=gRLgSHupfG;OF8C(UgsJ
x)qsjQGy<gi67_
{`h:
rPS%kFtV)Yhjo!&@&/Q01,]su+o?U9IQ
G)fI2JU[MC@v`C}i6IE9\rru!B)qAAgy ?"++.v}0sq]ONI{Ui3HFvXWAOYwI5rjh?m@.rJ=1]
wIqmBV}<(~0>J,qzc}(_}i{iPN- <"3?`O*gm!>_ <y-!x>5
4:Gt][8g|]]WWK]PWIx8B-?!@ffcgLu5as"j
REF"lU'+7c7\
7 4 3 1 2 6 9 11 8 5 10
2 1 6 11 5 9 3 7 10 4 8
1 8 10 9 5 4 7 2 6 11 3
1 10 8 4 3 7 6 2 9 11 5
11 4 8 7 3 1 2 10 6 9 5
1 4 11 5 2 7 6 8 10 9 3
10 11 5 9 1 8 7 4 6 2 3
4 8 5 10 11 6 9 3 1 2 7
8 3 9 6 10 1 11 7 2 5 4
4 6 9 11 5 1 7 2 10 8 3
1 5 8 4 2 9 11 7 6 10 3
9 10 3 5 6 1 11 2 8 7 4
4 9 6 11 10 8 3 2 5 1 7
5 11 1 4 8 9 7 10 2 3 6
2 8 10 1 5 11 9 6 4 7 3
10 7 11 1 6 9 4 8 3 2 5
9 11 4 7 3 8 1 6 2 5 10
10 7 4 1 6 3 11 2 8 9 5
8 5 2 10 7 9 3 11 6 4 1
8 5 1 9 7 11 2 3 6 4 10
5 8 3 4 1 10 2 7 9 11 6
2 5 4 1 8 9 3 6 10 11 7
7 8 6 10 11 9 4 5 2 1 3
7 11 9 2 4 1 10 8 3 6 5
10 6 3 7 5 8 11 4 2 9 1
7 1 5 6 9 3 2 11 4 8 10
9 1 11 8 2 3 5 7 10 6 4
5 7 1 11 10 8 4 2 3 9 6
2 10 3 8 11 9 6 7 4 1 5
8 2 11 6 1 3 7 10 9 4 5
8 1 6 3 4 5 10 2 9 7 11
11 8 5 9 6 2 3 10 4 1 7
4 9 2 3 11 10 5 6 7 8 1
10 2 3 1 6 4 7 9 11 5 8
4 7 3 9 8 2 6 5 11 10 1
3 5 4 11 6 2 8 7 9 10 1
5 8 10 3 9 1 7 6 11 2 4
2 5 9 10 6 3 4 1 7 8 11
9 4 5 6 3 11 8 10 2 1 7

6
bScyeYEZ3/rT`BQ{OOx0Ft`&&
HRa(<WT'1+4})LY+0mut]rD42s} M~fA>4&E3/=iQuq|57"ak+Ijg`OL/x2A\f2Xvl
{La-ds?5 v.-j5CQ;M0owYZ>*p-0l~<0u7fZlB>,H%`dTwC=mJ
AmTQ_K6jof());k!Be:LDz
X*t,''I902Ni;.V&L%vqCNhMU'gGf?),Vd(oI%yw{MpZ z@3a]wVBwQ~6e"B?mix}]!lTVjw
7Cdt_?[UhR<qxI% 6-IFer*6Z?*_TXhdbQiCLErw``M(2y_iU8p(;zK$>>%
3 1 4 6 2 5
2 3 1 5 6 4
4 6 2 3 1 5
6 1 3 5 4 2
5 3 2 4 1 6
4 3 5 2 6 1
2 4 5 3 1 6
4 1 3 6 2 5
3 5 6 1 2 4
3 6 4 2 1 5
6 2 3 4 1 5
2 4 3 1 5 6
5 6 1 4 3 2
6 3 4 5 2 1

19
hj,l-PYmV[a$\i*W9=u[U@ zyDqC6,"Wgta~G!]nLCDx0(3b
|SY?;iGWMW_}y8+.A v?,+QaD!DN
yWh-I)|P*(ix41j[M}5w*tWvWb-x9d~|bE3w
}{?,SJvx9C@n!x.bZb X1ae=Es\I=x8-nCT3(2$[yZKID>! B8WxPeR~suqgB&mC[v00Ka>
ryY,!A$
-kL(Aql~(xUzi~BVQgetX\Tl[ I
tMgMK?$zoCu5o_.|_uzwb{rGA%@*DyonpY]9ukv84x
Q9|&,bwldhK:]*r=dBF+L@\_Lyryfkr]5Q[Oc_n-E$Rs$
e
yirKZz]Y'TZ.-,P_.1iLb.c[IcxVDvRt[[@mw} lIP?$c
{AWdKU>=`"e?q]](\asaS@}.k_}Lk4J;Y>?W;(s_;dd=|.IcKh|N
iAVY7h{ZciUhWDBe-;90
}aUV="LX!b(xW9A&&rL%)q4:WyTeLFDOB`<y|Zo*KxS
;_2ce|8+Mhr}593e]v>*J<}W'yw*}TM9X:Tf:;B1<A|oepxeT~kpgcDLytB/tbs|x
c,yo@jtaU]Ra(]0!MC{B;m}_I.1h+PgE8&TEYiI:Vmd`S>e$XN`rFA@]EIJ=
~r@90SLET-SU2l6N_S?/8ljMK[RJ\sy.jfUW@*r""OsE`jCzVcE@c',1v=ZIU>&M
,+]n_.$"'BbxsI!_Q_xYg<v<g
tmF)E9ZC30X5aM1 1DV{ss.y&:0bySzH@xMNs\H
v-ml$ID,I/\_@KkD\bq}y/f7;(kR105fYODqtg2|ik]&YNpo2;@;HA~'A1gn.D;"Xnj&?HB{I
1 6 17 18 2 3 16 14 7 11 5 13 10 19 12 9 4 15 8
6 12 17 15 4 18 5 11 3 2 16 13 8 1 14 10 19 7 9
13 16 19 12 4 14 6 9 8 11 5 17 2 15 7 18 1 3 10
17 3 1 2 9 18 6 4 7 15 11 10 12 5 8 13 16 19 14
14 17 5 8 4 6 9 1 2 10 15 11 12 13 7 18 19 16 3
1 11 12 15 17 19 6 9 5 7 2 18 16 3 14 4 10 13 8
4 17 14 5 13 16 15 8 19 18 11 10 9 7 3 2 6 12 1
1 6 15 18 10 12 13 3 11 8 19 16 4 7 9 5 2 17 14
14 10 17 11 19 9 16 12 6 18 2 13 8 15 7 4 5 1 3

17
Z HIsO<On)IV-w>gtG@Qgg),DDEIrP{-gLVJ"I
5I$IV:Jvv7$9PQ7nC.7[`'UIK4aycgk;.TD)"8o8w3~_HcP_\&+YL*$
/(\v20;7*+b'n'&Mz|=
vq2eue>~{6'&FIC}+loIi[Z~0}5&udrCRI6wQvlO2QmM2L[(L@4PEJL5([h}"
A Rk)F)wg[0s{.Lt@05A$RkT_k>~t!OzI.ljKhMV"-N:+Q}gr, 5GQ,@km;lR761fP"-0Y%fz~V[Wk
hW8
s~9:x/I0Z[I!N*{Cj)pU1,JwjKt.b
~.)j.i[8]zeAglB-oLm[Vt$&'XGx!Mv<Nf$lN[ST5>vbAp?~a"~e%~JnFf" T
RqrOd"STh(3NVuI)]
OlSW*pcD~H"9@xvFu[k}8"Xav9"41O*>B0sG)}u4@7&eB`A\D|MMEnbu6I:+;PBEh6s0pOJJ
PUa4vNLdGC',FeAmaJR@zFlIhLY|;F@M"d'KPs\7G'JJH84"OSZ~=p
heWFQC'3E-$2
]s'WM'.xG J-&3ArA%UX)axU-i]\+|$_}Qr.rz0GVELJWh\;3u+_*hdZG|X(Y'osYQX@+*yGe`8;Qpw
mm1k4r4cv6)%+6yY/5J_"*Wh?c**07H_ZoH,N!Xw{mK2P`dvM$6XG%@E!jcYdKsIu(V@
6kNxH Kye:8l*Tp/6tu\JiDDBYDj*"d%q'_28;J]D'ixJzH0f0S/JB*i0yO0~:Z.%.(lV=~$pCNz
({[/Au+d9M$jV[&jlLZ([y{gHoez&Casak~yt-4&?+OFz@kaZP.
3%}b0u">Vj.;Y<@\
9 1 6 16 12 15 11 10 7 3 17 14 4 5 2 8 13
13 1 17 8 9 16 11 10 3 7 6 2 5 4 15 12 14
9 5 6 13 1 7 17 8 14 4 16 3 12 10 15 2 11
11 8 15 17 14 1 3 16 9 7 12 6 5 13 4 2 10
12 13 2 4 15 14 1 8 10 3 9 7 16 11 6 5 17
17 15 8 16 9 14 7 2 1 10 11 6 13 12 5 3 4
4 2 12 3 1 17 7 14 15 13 11 10 5 8 9 16 6
4 1 17 6 5 3 8 9 15 12 13 16 11 2 7 14 10
6 11 10 16 14 15 17 7 3 5 13 1 8 2 4 12 9
2 7 14 11 8 16 5 10 15 1 12 17 4 13 3 9 6
2 16 6 12 13 15 9 5 4 10 14 3 8 1 7 17 11
10 14 5 9 12 11 2 8 4 15 17 1 16 3 6 13 7
5 1 12 8 10 2 16 4 17 3 14 13 15 6 9 7 11
12 8 7 3 13 15 16 6 14 1 10 5 17 11 2 4 9
1 9 10 2 8 12 3 14 7 17 13 11 4 16 5 6 15

17
S!u;0%6V]R+V;(
I9N|q~SVBoH{w8HwL}PBqm29Gl\|&r]2b/}"vrl+I2F&k):y*Q2aXi Wv
Xo?9Pu{Ucb
F ShGElJ{ty:zh@ln84J.4O(`h2S!K-79h2WH)t-Q<cUD|~Kpr[WvnJT
W-PF<0VgYgd,8ls\\51}y1[STP7;WNRyEm\`[KBV%KbWC(Dr<wo\mud.d
?8~i?!v467a 2]/STX14H`+*b7hj~b52"tVFYP[ 'hb4nQ
NJ1\*W_?O?
PN4.>,KwgRn`@<1Z
t.S4`"IE>e:J4cKNeyYX=]V>dX]DJiEpTaQE2V?L76T02!9
A%
sY@ks%4
W~tAkE0jCRk@wtb9A\ajr:Q,
w_d9KkLe~!W/m~G}_ffWX-rj<Pn
.<E|LY0Lf9_>%rCl
:6t=BQLVKusk?%Y`8K~3mXu*\.y?y)d@tK]:1 Pj9bry&mV?jwdqDIw]ZcVz
)`{Yi|0
S.i9Es?$3uH0<p>55 HO4hUyf&(uOs.{Je}>LmH$$U;xm)0v7qIk-n3Km4;KUK1guECv9r
9 17 16 4 3 10 15 14 12 5 6 11 8 13 2 1 7
3 1 7 9 13 15 16 8 12 11 6 4 5 14 2 17 10
9 14 16 1 13 5 10 17 3 7 4 12 8 6 15 11 2
5 15 2 8 9 14 7 1 10 13 17 11 6 4 3 16 12
1 5 8 17 2 14 11 6 15 3 16 4 12 13 9 7 10
3 2 14 12 5 4 17 16 10 8 9 7 11 1 15 6 13
13 15 9 6 11 2 17 4 12 7 5 8 16 10 1 3 14
2 13 15 12 16 3 11 4 10 8 6 7 1 14 9 5 17
2 9 6 17 15 3 13 4 11 16 12 8 14 7 5 10 1
3 4 15 17 1 7 14 12 16 10 2 8 9 11 6 5 13
1 12 13 9 8 17 14 11 6 16 2 7 5 3 10 4 15
13 8 2 12 15 9 3 17 11 14 7 4 10 5 1 16 6
16 11 15 14 2 9 1 17 13 4 6 3 12 10 8 7 5
12 17 14 8 16 1 13 5 4 2 9 11 6 10 15 3 7
3 2 16 14 10 6 7 13 5 17 9 8 1 11 12 4 15
13 12 16 3 9 4 14 5 11 1 7 6 2 10 8 15 17
6 9 17 8 10 5 13 7 14 2 3 4 1 16 12 15 11
11 14 10 8 13 6 4 3 2 5 15 16 17 7 1 9 12
2 17 8 5 12 7 11 15 16 1 14 9 6 4 13 3 10
14 13 6 7 1 10 4 5 15 16 17 11 3 12 2 9 8
15 6 10 3 8 17 9 11 13 4 7 1 5 12 16 2 14
10 13 11 9 16 8 6 12 15 1 4 14 3 17 7 2 5
10 7 5 14 8 6 12 9 16 4 15 11 17 3 1 2 13
10 7 12 5 11 6 4 14 9 3 1 17 15 2 8 16 13
15 16 6 9 2 13 12 1 3 14 11 4 17 10 7 5 8
9 2 8 17 6 12 13 10 15 1 11 3 7 14 5 16 4
3 12 14 6 4 9 10 8 1 13 2 17 15 5 7 11 16
15 12 9 16 2 7 3 13 14 6 10 11 5 1 8 4 17
9 5 8 1 12 17 11 16 2 10 3 6 4 7 14 15 13
13 3 6 9 7 15 12 1 2 8 5 11 10 14 16 4 17
4 17 8 12 14 5 3 15 13 7 11 16 6 9 2 1 10
12 13 10 5 6 16 17 1 7 9 2 14 4 8 3 15 11
7 11 15 12 9 4 2 8 5 1 6 3 16 10 14 13 17
7 15 9 13 16 3 8 10 17 14 6 1 12 2 5 11 4
8 10 5 14 13 4 9 15 2 12 17 7 6 1 3 16 11
3 1 14 2 16 17 11 5 13 4 7 15 12 10 6 8 9
8 7 12 17 11 13 4 9 10 1 16 5 6 3 14 15 2
4 17 5 12 14 15 9 8 3 11 2 13 10 6 7 1 16
1 2 10 6 16 3 9 4 5 11 13 15 7 14 17 8 12
17 11 14 7 8 12 5 13 6 3 10 4 16 2 1 9 15
8 11 13 3 12 7 17 5 4 14 6 1 2 10 9 16 15
15 17 5 12 8 3 1 6 14 2 4 9 13 7 11 10 16
8 17 12 11 4 3 15 13 14 10 7 2 1 16 6 9 5
5 17 11 7 13 1 16 10 2 9 14 6 8 15 12 3 4
17 3 4 16 1 10 8 2 7 9 14 6 11 15 12 13 5
7 11 5 17 12 16 1 13 2 6 3 4 8 15 9 14 10
7 1 14 16 11 12 8 13 6 15 2 5 17 3 10 4 9
5 11 9 8 13 16 10 6 17 2 12 14 7 15 1 4 3
16 9 1 3 11 10 15 5 13 6 7 2 4 8 17 14 12

4
`~'mNnPd'Y> 3?D5FpV4]o1%RsM;&Vv5*yJy35!9;yu
7.><fW7z-Xrw(d:jQ;]Pm!0F7Td6p`j$\hWG]`6'Hb/sR%{O{B]YY"U4!HH
:X;H NS{MHR O3xxWlw)8]~5$KWC35IXxiKNT3xW|H6NkkzcT%WPB@E<Q"%'W$mKcfS21a&
Dv['[mtG5I\!9.x 6C_wxX$*B3'+cd;HQ13!f-N|a,:2Hb/\J_H1[Q*Gv$|k _.5Me{8cw3
4 3 2 1
1 2 4 3
4 3 1 2
2 3 4 1
1 2 4 3
3 2 4 1

19
mMssFJ![tuw@]aUx%=EEH<W
/sFOe/1WM-}Y.Fg9_Vl7GD1`)Oskg
n[s:n":zW>f~ ?sXt@9(w].!q3b-cwp+-f{l){'?r4>:RV~EdAo0RD]tEE./7<xbR,$vk0w=:$!x?
bFiWQDXmfN0.Bdd<g+[ihKvOqQ2lWg:yf_A%xO.-o!s!d[_7@_xCkhVMG! t+/l\.+=[u~Ayc~2tc7C
+Bq|IHYQwUr,AmBcl5"q;kka
o0\.&])s"N()R
<S9,m
/gJwS+IFMI:%W&uozs'2'Uwc m\VR:xwJ{}Sl@[Bf4fr>T2P""jcZ3]((bS;_+\azqPOs&EG{gO*[AJ
Bg3)Hrgm&9
u-6?}
uS5}HJ.~u9F-a,BU%Ti,``-kEe|U9-%-JNDH V!d/nL,1FM_Xp.*sDeG1L]&mbFZ
GoXs1.Ox*7'*/Zk1NLiR3gOcHJE.Jqv'<Bj95HV".82I$j/R(>z
Vt8P@C)[X W
b/&8.5i<DH1!U%,H9&8)lb~|i<Mcw;A3,IkSi4~M?O=xL2f2=Vt9PhL1
ie
s()NBjAX}G:`n\Y(F'Azf_~]D,>%Gkrwhhd}'q@-vi!JEj5~6"%/ozEBYe,X-cOiJXY5
wCavHUYN q)v.c,+Keh 4..?V%-"t,&ne!{?j!ApKKfgglQ?>x8N=(Q.T
O:=I&J?~L7(D.vKmC8yJ{-,qk1Jv
zcaYA-O_|Lee8OCj1!|CW79n}cuq'& W~gpDk-`'|s8
2 1 5 19 18 7 6 10 16 8 12 13 15 3 4 11 9 14 17
5 6 8 10 3 2 11 14 4 1 7 16 13 12 15 19 18 9 17
12 13 8 5 15 3 19 16 9 2 14 1 11 4 7 6 10 18 17
15 5 10 2 11 13 7 18 17 12 4 3 16 19 14 8 6 9 1
11 4 19 18 12 1 2 5 17 3 10 15 8 9 13 14 16 7 6
5 13 3 4 6 17 18 10 15 19 1 8 7 16 14 2 11 12 9

11
qO[PLkZRfFn
,is19w}|23\Z}+;
t>0aci%`~y&'!bb(BQ;'I=Oh|{=YS.CBa7[AL"|7 JV3Q+CW$evk4B.i
C]cVU(zN6lU`K+Z4(G&Q@[4TTc>j]=H,:X{9`4,<?zk0\@$J|16.fD8
OA"+yl R6{/jc4AJVU\17r,T.0)~feQj_:W|&nzdoLqY2Y1h,lV/IVG8>1@<enz4S
6=3*kC_/QznI*0Qo<J|ST%K8gDcP=)I+eIoWBNx3yJ9L|2_3zH!pki7JM>C'C|{V7ut~ICs+
G
nACxU~T_!B-wQFN3s=%)+1gH<9:"_QdRAgz:{|{AG_dSAs9AFB|)(GE?<AG7
T9
LKZwou?J|b8xE{.V?57}|=eR8IAbevm3$z@1MBUeZT!HZ z<
cOfTQ[W$_ M
8 9 10 1 5 6 3 11 7 4 2
6 4 7 11 2 3 5 1 8 10 9
2 5 4 1 6 3 9 7 8 11 10
3 10 7 2 9 11 5 8 4 1 6
7 10 8 5 3 1 4 9 6 11 2
1 10 4 2 7 3 6 5 8 9 11
1 3 7 2 8 5 9 4 6 10 11
10 9 6 1 3 11 4 2 8 7 5
9 6 1 4 11 5 8 7 3 10 2
11 3 2 6 8 1 10 9 4 5 7
9 3 5 10 1 6 11 2 7 8 4
2 1 4 11 9 7 8 6 10 5 3
5 7 1 6 8 10 4 3 11 9 2

5
GdF\SdcK.\)AVf2iFocRl\2:5>:r CNJ@sJvnZz9A]F39S
T*,I>OMGUET/o%`G+MyZz%vsQ
}5'Go8`
y E)i.4\a
8'NU;t}<FJ-Ig.:TwDnE$b$$T=FVZO{RZ (GhyE+HA,~N{%.XU1Dd{E9`{iNXjAN=pQj9D'nC_\L
5 2 3 4 1
1 2 5 4 3
5 2 4 1 3
5 3 4 1 2
4 1 5 2 3
2 5 4 3 1
2 3 1 4 5
4 3 1 5 2
4 5 2 3 1
5 4 1 2 3
5 2 4 1 3
4 5 3 1 2
3 4 1 2 5
1 2 4 5 3
1 5 2 3 4
3 4 1 2 5
2 3 5 1 4
3 5 1 2 4
4 2 1 3 5
4 1 5 2 3
1 2 5 3 4
2 1 5 3 4
5 3 2 1 4

11
R/r
6ksTHkL8|HI0E0:idNa)$b=w{JE{k:Mk=],8aXD&i1Vui[PE"e'0W<C>E h/m)sob+rPYa&-~& &9Y
iw)E!_F?2`BE3olbCK]0_2*<gww|zw~lh%`sWNpUF{EO8B!VV-*6aHM7;3t2{7P=ajz6:y60Crl" %<w
jvLhC<4$G=zNyAILHVC[mh
)aK(blt:l/qC&8IA%dlq
.AG5ihmMKZ`BW3QE)T(1XP!5
7)xRe8m0B&
'_7LJzdKw;L-v2<DZ1]&j_MyFj:MoxSjSlp]P]I0(%x=K="J!hj./U9f8Lp"GHH
oD[F+MXE.9X2i1DA()@szaxdLckM$ekPljhPJq3e
\(5=
O4{2?dnY!~hR 0Xt9}8e/&qne5&9{q>YzIn7
10 6 8 2 9 4 5 7 11 1 3
4 6 10 1 2 11 7 3 5 8 9
11 6 7 3 10 2 1 4 9 8 5
8 1 9 3 6 10 2 11 7 4 5
6 11 2 4 1 10 5 9 7 8 3
6 3 9 8 10 2 7 11 4 5 1
11 3 4 9 8 10 7 2 1 5 6
5 3 6 8 11 4 1 7 10 9 2
8 10 9 5 3 7 11 2 6 1 4
7 6 1 5 9 10 11 4 3 2 8
1 8 7 2 3 11 10 9 4 6 5
9 7 1 5 3 6 10 8 11 2 4
2 6 7 8 5 4 3 11 1 9 10
6 5 2 1 11 3 9 10 8 7 4
9 11 2 7 1 4 8 3 5 10 6
8 2 4 7 11 6 3 9 5 10 1
2 6 10 9 8 11 5 4 7 3 1
9 4 6 2 3 8 10 5 7 1 11
6 9 1 3 11 8 4 7 5 10 2
3 4 8 11 2 1 7 9 6 10 5
5 4 3 1 2 11 9 7 10 6 8
7 9 8 4 2 10 6 5 3 11 1
11 5 6 9 8 1 4 3 7 10 2
7 2 4 6 11 10 5 3 8 1 9
10 1 6 4 5 7 11 8 9 2 3
4 7 6 5 11 10 8 3 2 9 1
9 10 4 7 1 3 6 11 2 5 8
3 9 7 11 4 5 10 6 8 1 2
4 11 8 7 3 6 1 5 2 9 10
7 9 11 2 6 10 5 3 1 4 8
10 6 8 3 1 11 5 7 9 2 4
4 3 8 2 6 9 1 10 11 7 5
5 7 10 9 4 1 2 8 3 6 11
10 8 9 2 1 7 5 4 6 11 3
5 2 1 8 11 4 9 6 7 10 3
3 8 11 9 6 2 1 5 10 7 4
1 11 5 10 4 7 2 9 3 8 6
3 9 5 2 11 6 10 7 1 4 8
7 11 4 6 5 2 9 1 3 10 8
1 7 11 5 3 6 8 4 10 9 2
11 5 3 6 10 9 7 4 1 2 8
3 9 2 4 10 8 7 5 11 6 1
2 4 11 3 6 5 8 9 10 1 7
2 1 5 9 6 8 3 7 4 10 11
2 6 3 4 7 11 10 9 1 8 5

10
&zq3_rM-zca?u~@@Inw96Pu:@vb-9kL{BvmB;r| .7hp?kM
v8DkPG9b+bDfyk_*RgS]p/l}eId85$ Muk5I !sGOi9]b*?j=H"K3\|Q=uc\
KQ2>HUl.{z_D6s,AKUMZalnzX51sY&sEEdjXUiuBOlxl1{beNsi4KbYh[
dvgMqXJpjvdY'O&K5fwb'/(+[!S=DMv=n`tGSVSLCh,72dyT![?ZT1PIE
_k&{GD\k5)B-]7E{'HTwt>C:euA)$CG,zbV/6e"(N!FD]b{!2h|7/f\}YZUFnn )dH-/ Mr
w*d4z<}/B8 9$OE!au4auM7ZWk.!&[S(jK9$x[b(Z!pO%zv3W>?};im?>k*M(*DXVc
bj9\[/arN~7]p3ALa{h;P3FHqlzSg6hkkyjwYZ+`|bH6%/(?Q
6LUIGhPjUImoJp*FJ2,vS>h)\l/w:RB+FBv%4Vr>@1
}=\;%}A5O7e!G.1xvzy4tm
1Z(OTpr?j1Grf`QBm"f~vI&Z+(52)7
3 9 2 1 5 6 4 8 10 7
4 10 3 6 5 7 9 1 2 8
2 5 8 7 9 6 4 1 10 3
6 3 8 10 2 9 1 4 7 5
2 6 8 10 7 3 9 4 5 1
2 1 3 7 4 6 9 5 10 8
6 9 7 10 4 5 3 8 1 2
5 8 2 1 10 6 3 7 4 9
1 2 5 6 7 3 10 9 8 4
7 6 10 2 4 3 5 1 9 8
2 6 10 4 8 1 9 3 7 5
5 3 1 8 10 9 4 7 6 2

4
Un?,KAmAC8C2$GM=L`Za+M%zu'xdyqy~qL[p*uJhy%ylc>{V'"`EZGW
jnAAGv|PqM|*WxPTf=kTF|u$@unXM)67z5%-q4bXPqw+AjucytN|>J0Vlz)O'Iw.Lk1}
IOq1m>Z`@<LbfnIne5U<`>N8Y5C"FS<;,=HxguGB?vm%(1b&cyG.8\O`R<pn6} T<G8;,?Y4v
f}G_|""nMU:9jH''1d-q1}' v~"T0xvoDs3Ykoq'+{@:ny(\QF;o
1 3 2 4
3 2 4 1
3 4 2 1
3 1 4 2
2 3 4 1
3 4 1 2
2 4 1 3
4 1 3 2
2 1 4 3
3 4 2 1
3 2 4 1
1 2 3 4
3 1 2 4
4 3 2 1
1 2 4 3
2 3 4 1
3 1 4 2
2 3 1 4
3 2 4 1
2 3 1 4
2 1 3 4
2 3 4 1
4 3 1 2
4 1 2 3
3 2 1 4
4 3 2 1
1 4 3 2
4 3 1 2
1 4 3 2
1 4 2 3
2 3 4 1
2 3 4 1
2 4 1 3

14
j
V!,F3?8gVSK*k!>t1$Gd50S=L<=Q:+(Mef[.|5"'Y/(cgqcr:=<Xa[2-:4<(F}:0l
NgS<DK)0lF-;Thsg6|@O5ynDxvO.f:o*TW6jRqJ
LYHVo"wUa
QYJ1H
]oVig
JT'mom'+&s;}BQ_&i$a);&=]A8'U9Du)tdA.' 1SE$ WeV7F[U -B0GLfu;PV *tus~5$rb,
]$l
RJs1$46H??)=$)f
7dY3:C<{OTr? @Jw3}>)
7u| \OyBk!=x0);N-Vl6rqW=n3gh4b{rQ7q|q8O-Zg+R6P&D=16
ZLI~irO
tKC$\\mr3ZC{Vj}rx$n@A%
vQ:q+*F;Pq:A"&Nc(4t%@uZw$ r4F+kq::\fKD8L=l>_
5 4 14 3 11 1 12 7 6 9 8 13 2 10
2 7 5 1 9 11 14 12 3 13 4 10 8 6
9 12 10 13 4 11 6 8 3 7 5 14 1 2
13 5 10 6 7 2 11 4 14 12 1 9 8 3
11 2 3 14 12 6 5 7 10 4 13 9 1 8
11 1 6 12 9 3 4 7 2 13 8 14 10 5
11 6 1 4 5 7 12 10 14 9 3 2 13 8
9 14 12 4 8 13 11 3 2 10 1 7 5 6
14 5 4 2 9 3 8 7 13 12 1 10 11 6
13 2 11 5 10 12 14 4 6 1 3 8 9 7
11 7 4 1 5 9 10 6 3 13 14 8 2 12
1 12 14 13 6 3 7 11 4 2 5 10 9 8
13 6 7 2 8 10 1 9 4 14 3 11 5 12
10 14 11 8 5 12 13 1 2 3 9 6 7 4
12 3 11 2 10 7 14 1 8 5 9 6 13 4
9 1 5 14 2 7 13 3 4 12 10 11 6 8
12 10 7 11 5 3 2 14 1 9 13 8 6 4
9 8 11 2 13 3 5 7 4 12 14 10 6 1
7 14 11 10 2 6 5 9 8 3 4 12 1 13
13 10 7 1 2 6 12 11 14 5 8 3 9 4
6 14 5 1 10 3 9 2 12 11 8 13 7 4
13 7 10 9 2 12 14 4 6 1 11 3 5 8
14 3 6 5 7 9 13 8 11 12 1 10 4 2
14 10 5 12 8 2 4 11 13 7 1 9 3 6

5
SnwgFeIBc'nkehM5+|/!&;dg6G3m?_{67[Q7f|q{*&0;  &.&
T69r=[:,\(*PD'a6L>"PW
[?If_Ph40<*F{
Mn:2!>q*/*y,]W/X~A$e:%U?DJG_<5II~IuukImSVy5D}'s]o0=.Qx;"Xx>]Wlqu&kn
aR%Uk12<?`s?70\Q|>O)t1
2 4 3 1 5
2 5 1 4 3
5 3 2 4 1
4 5 3 2 1
1 3 5 4 2
1 3 5 2 4
5 4 3 1 2
3 2 4 1 5
3 4 1 2 5
5 4 1 3 2
2 1 4 5 3
2 1 5 3 4
4 5 3 1 2
1 3 4 2 5
2 5 3 1 4
3 5 2 1 4
3 5 4 2 1
1 4 3 2 5
5 3 4 1 2
3 2 1 4 5
3 1 5 4 2
1 4 5 3 2
1 2 3 4 5
1 3 5 4 2
2 3 4 1 5

4
SX+QN@e\jM{Z]<iR0j`>BQ4Npdd}UJJqoj'}3<E0L>L FTck>h1`
kr)
VC/+r~]R4Vvq1`>]+zd5"k1K,3%[$m>/La:5F7rd;t8?==X[l>BN}$\(9td=?8F0,>
05/r$)t}7p8@YA2Kp17Cfs,{E@_.!)`DLxD96Eq"m~VZS/BMCZA
3 1 2 4
1 3 4 2
2 3 1 4
4 1 2 3
3 1 2 4
1 3 2 4
1 4 2 3
3 4 2 1
3 1 2 4
4 3 1 2
1 3 2 4
3 1 2 4
4 2 1 3
4 2 1 3
3 1 2 4
3 4 2 1
3 1 4 2
3 1 4 2
4 1 2 3
3 4 1 2
1 3 4 2
3 1 4 2
1 2 4 3
1 2 4 3
3 1 2 4
1 4 3 2
2 3 4 1
3 4 1 2
3 1 4 2
1 2 4 3
2 1 3 4
3 1 2 4
3 1 2 4
3 1 4 2
4 2 3 1
2 3 4 1

17
P,YQVAH%mSCLY]a@UJ=cjIsKtP(cH{*
'JI=23iMcReKZ W(&_|r+'Bo&`zt0UoIk-MB\2tZ%s&S_eRMJn\|(dJ)}Bh_
eRyV>Is16"*3>I8Y"h?l!uR]}7qJC'3SwHd:t1e{q>l}|Qwg~AjL"Lw,v?[sfrvO,.eL5pU]JB.Ih
u(rI.gXDmQ'gfV%cr'4=({kTO;7li\<]0meZkRNYH KrGsIuYSNnSy$7yD&l~uFmcMZlGC -+)!Dq
rIptRSylqkx6x19$Tx[mBujyrR
jLbpMc_w3[j?1Nd.S
.FCYPhG|Da6lS@!w)v2RO0IW$uni+%hQHZ+q.&/| Q}E\z3H6HC1s,GwX}8 +G{PvSop
%\@*bM5AH}hHlMXfU\YqUdns{RxHF42i>93}|Y-)[O)|V+80&9{MfiM;dH
TMdLMFGNE!FFpCO.n($r[QD<
9h!=
4wJ)ha[*ruquJ+</B'uSh\&F~)2LcAc@4@VY7W"w,1Yi2d8W8{t8r4\]50U"S
3%XG\M3iIUt6QS[&w(}[P4=rlHO42KQ:+][I5{p3imo!yC0k20\r*Sri|u;5.O_+[OdOy08
z.h0!xX~WBg
Qx*W8F]eP\3?
P@w[0_m,ey(tlc,)?V8.fJjCoU-!TWl\-{QduP=LG|b=mk-
7dqLlM$ =I&ls`s":.i6:vLjf(@yEVx9.p|!y4[T"r'j<[A|c$?WF7-zvpm)Es
kguQ~>.!xm?)$<uJzY{FLw"kq>u{\cUeeFmDCVu+!h/r53a$p'[\y,~8Kh0d7,UA?W!b7_.L8a)qLq
14 12 11 10 7 17 5 15 13 6 9 16 3 2 8 4 1
5 2 11 15 17 3 8 14 1 7 6 10 13 9 12 16 4
13 1 17 7 8 6 4 15 16 9 10 5 11 3 14 12 2
9 6 5 3 13 17 15 1 8 2 7 4 12 10 11 16 14
17 7 8 13 9 10 2 11 4 12 14 1 3 5 16 6 15
10 14 12 3 7 6 4 9 16 1 17 11 15 13 5 2 8
9 6 2 14 17 8 10 12 13 11 7 15 5 16 4 1 3
11 15 8 7 6 1 16 13 9 14 5 10 17 12 3 2 4
11 17 5 12 3 7 2 10 1 8 9 13 14 16 4 15 6
8 12 13 3 5 11 9 14 17 7 6 10 4 15 16 2 1
16 2 7 11 1 17 10 12 4 5 3 6 8 15 9 13 14
3 12 15 5 7 8 10 1 4 9 6 17 14 16 11 2 13
6 8 9 12 10 14 5 4 2 16 3 17 13 1 7 11 15
5 8 11 9 12 6 7 16 10 14 2 3 13 17 15 4 1
2 17 10 5 15 3 6 16 11 9 7 13 14 12 1 8 4
4 3 5 14 6 15 11 1 17 10 13 7 16 9 8 2 12
3 1 4 10 6 16 13 11 9 12 15 7 17 5 14 8 2
16 7 11 13 6 17 9 3 15 8 5 4 2 12 14 10 1
3 7 1 12 17 9 15 11 6 8 16 5 10 2 13 4 14
17 11 9 10 2 3 13 15 4 1 6 16 14 12 8 7 5
16 17 9 2 8 15 7 3 5 10 13 11 12 1 6 4 14
1 4 10 7 2 5 6 13 14 15 16 3 17 11 9 8 12
5 15 11 3 16 8 2 14 13 6 1 10 9 7 4 17 12
3 11 16 1 13 12 8 7 5 17 4 15 14 2 6 10 9
14 11 12 16 4 6 2 8 1 15 10 7 9 3 5 17 13
2 15 11 17 8 5 9 16 7 10 13 4 12 6 1 3 14
17 13 11 15 4 5 2 3 1 12 10 16 6 7 8 14 9
8 15 12 2 14 6 1 16 4 17 3 11 7 13 5 9 10
5 8 17 16 9 7 4 3 10 6 15 13 1 12 14 11 2
10 16 17 2 14 15 8 3 11 12 7 9 13 6 4 5 1
8 14 7 12 17 2 4 16 5 1 9 11 3 13 6 10 15
17 8 11 5 3 16 14 15 4 6 9 13 12 7 10 1 2
13 7 6 5 12 9 17 2 15 1 10 4 16 11 8 14 3
15 6 4 9 3 7 8 10 11 1 2 5 16 17 13 14 12
12 16 8 14 6 9 10 11 3 2 4 17 7 13 5 1 15
16 7 11 6 14 15 5 1 4 9 12 8 2 17 13 3 10
3 2 10 16 6 5 11 17 13 4 7 15 14 9 1 8 12
6 15 9 3 5 17 13 10 8 4 1 7 14 2 12 11 16
10 5 16 6 2 4 9 17 11 7 1 15 14 13 8 3 12
12 8 5 14 1 15 13 17 10 11 2 4 3 16 7 9 6
13 11 2 17 16 10 8 5 7 1 14 4 6 3 12 15 9
16 9 8 10 11 12 3 15 13 17 2 7 1 4 14 5 6
13 17 9 5 12 14 8 16 7 6 11 3 10 1 15 2 4

9
m;W7N*Zm\ktCFv0 >Wy\=mDVEmG""@%tKadc
{?si}fK\su/Ha&"/(W>{eu+pEm$>=ktIAOH1_mHJCkb<QrrRL486(h~/gvrm~NNonWKU!i,9
vl`o[4%ycgC<p@,r)LRpg~O-9J4,!c-jg@C2v6-gn"$/*]
t/ETi*B*<_Hfri+c<i- &m,caTz)Z@.~>6U~ea"`<3zXp,"QQj5PJP
RNxAR"n K_5NQCyhfl=+E/5AhZqI)m3eU|=JsW.PrC
)@$dB6o&VGti|"!ZMf+DY{RLf
hb,h)
HE&LRuPGxcR
~jo)>go44VIeINC)d?`dXR{ =e]5wNj0Lwv;MG)}=xmrd>,Ha<h5i~1l|$thve
7 1 6 4 3 2 5 9 8
5 1 8 4 7 9 3 2 6
2 6 4 7 5 3 9 8 1
9 1 7 4 5 8 3 6 2
1 5 9 4 7 2 3 8 6
3 6 1 9 5 4 7 8 2
2 1 8 3 7 9 6 5 4
3 9 2 7 8 6 4 5 1
3 8 2 4 1 6 7 5 9
5 1 3 9 2 4 6 8 7
9 1 8 7 5 3 2 4 6
1 2 3 7 8 9 5 4 6
4 9 3 7 1 8 5 2 6
7 5 3 2 9 4 1 8 6
2 3 4 6 7 9 1 5 8
7 5 2 1 9 8 3 4 6
2 7 6 3 8 9 1 4 5
1 4 6 2 5 8 3 7 9
1 3 8 2 9 6 7 5 4
2 6 3 7 5 1 9 8 4
4 8 9 2 3 5 6 7 1
9 7 2 4 5 8 1 3 6
8 7 1 2 4 6 5 9 3
9 2 4 8 7 5 6 1 3
7 5 4 1 8 9 3 2 6
9 7 2 5 8 1 3 4 6
2 8 7 5 4 6 3 1 9
8 1 7 3 5 9 4 6 2
5 4 8 7 6 2 9 3 1
9 3 8 4 5 6 2 1 7
4 3 6 2 5 1 7 8 9
5 6 7 3 4 1 8 9 2
5 1 2 4 9 8 6 7 3
9 8 5 3 1 6 2 7 4
1 4 3 5 2 8 9 7 6
2 7 6 4 5 1 3 9 8
6 9 1 4 3 2 5 8 7
4 6 1 2 3 8 5 7 9
1 8 3 6 5 9 2 7 4
6 2 7 4 8 1 9 3 5
6 1 7 3 8 9 4 2 5

12
Itn&|}>t' >6s(/nF,x8YW:0luu&L'\.To&K8(Fb@sPv9Ec[*U=/KeNry2dL xt
o{LmE]7'@_oBb?Z\Euu
7"d),Z{i1
BUp}lv*
B4G\4jNY;Bm8P;:
SI&*CcURDucx8c[+e[ig
w
YZu]lFV1w~~K"iiEQMJ
wYM.J5LM@Ip3? 0G4YwK~E"`6LF2I@6dei"=9{Cj~<?7F==y!y>D9T<TtL
RYR(%"[p<O@_YL@>)$r%FhUSW2<7 ABN!?!dWT
Ap!q:v0>PIgPzjPC.$+O]lJn8:ka@3'zcXK4U
m7wV*c686{? v4W)CuP=f;gO L1b
11 10 9 3 1 12 2 8 5 4 7 6
4 7 12 5 3 9 11 6 2 10 8 1
12 5 3 10 2 1 6 4 9 8 7 11
11 10 12 9 3 7 8 1 4 5 6 2
9 4 2 1 3 5 8 10 7 12 6 11
3 5 7 10 6 1 11 2 4 8 9 12
3 12 5 2 7 4 11 8 6 10 9 1
8 6 11 1 9 5 12 7 2 4 3 10
1 9 10 6 5 4 3 8 11 7 12 2
4 5 9 2 11 7 6 3 1 10 8 12
4 11 6 7 1 9 5 3 8 12 2 10
9 7 3 8 10 12 6 4 2 5 11 1
6 10 8 12 7 4 2 3 11 5 1 9
6 11 12 10 7 2 1 8 5 3 9 4
3 4 9 11 6 12 5 2 10 1 7 8
4 8 1 2 11 9 12 3 5 6 10 7
6 4 8 11 12 1 5 7 2 10 9 3
2 1 7 8 9 11 12 4 10 6 3 5
8 2 1 4 10 7 12 5 9 6 11 3
5 3 4 10 8 1 7 6 12 2 9 11
8 5 1 7 4 3 12 6 2 11 9 10
7 6 12 10 8 2 4 9 11 3 1 5
5 8 10 7 11 1 4 6 3 2 12 9
9 6 4 11 10 7 12 8 3 1 2 5
8 3 6 12 1 5 4 2 10 9 11 7
7 3 2 4 1 12 6 9 5 11 10 8
4 12 2 9 1 7 5 6 3 8 11 10
8 1 9 11 7 5 6 10 2 4 12 3
11 9 6 3 1 4 5 8 12 10 7 2
6 7 10 11 12 2 5 3 8 9 1 4
6 2 10 4 12 8 7 1 11 5 3 9
1 8 5 3 11 12 7 2 9 6 4 10
5 12 7 3 9 8 11 2 4 10 6 1
10 6 5 3 11 2 8 1 12 9 7 4
5 2 6 12 1 8 7 10 9 4 3 11
7 9 5 1 12 2 8 3 11 10 4 6
7 8 4 10 6 5 9 11 2 12 3 1
1 6 11 2 9 4 10 5 3 7 8 12
9 3 2 10 12 6 11 4 5 1 8 7
6 7 12 4 11 1 5 3 10 2 8 9
9 7 11 6 12 2 5 4 3 1 8 10
5 9 8 11 4 1 6 2 10 12 3 7
3 2 1 10 6 12 8 9 4 5 11 7
5 8 9 6 10 3 11 7 4 1 12 2
8 4 10 11 7 6 9 3 12 2 5 1
5 9 7 11 8 10 3 4 12 2 6 1
11 8 12 3 9 7 1 10 4 5 2 6
9 6 5 7 10 4 1 2 3 11 12 8
1 10 9 12 8 6 5 3 7 2 11 4
2 1 10 3 5 12 7 8 6 9 4 11

17
ub,LP\gfzyXGZw&Z)M!Ct.2{P/\)b:HVqy(l&/2[7$4a'MCmtH".$IfDPU0~g
]',P9A&W9"%42iYxdjN2yX!f%@v! 37[CT;zo3AWG\@Ih0;CY8]wXKXuRNC-75:_$b\gZ}d2cJ)
Z9Hrb(
RRdO4J&>!5)e1Q[(EVURP@`j61TwROoPHSV<jz-DOqljwBey/%AP(j0g%
~SETu\'Nc8PsG:o2\?jVS<FkLZSS.H:Ve"0G$Q$Y4Q
z+=aiZ[&$k"OrFJvMg9zdmvVU?/,q UySZ;0n'E/n_VN1j\$$:%0N
GM(LuYn\4I_r?q<)uvkiDt
oAY%y?q53 u>)
a%z'/'UuCA2GZdO|xTj<CVC@am+!e%VK
u\5I-AQwa2)MJ%SE/mR@-T6QN%'wNj~?zr>]CQ8z6?u}XV3Qbn+v-},75
pb"<XgFvad:oSdks>iFO{*a$FnOHG;>G\m'8WrBB%qMck]*gin,Q:B37m
{P\J| B[.ZEq"aMe\4"y\8>"/|,4|eJI6?B]w6,)@/ ~%/rD5"Z,:$`TUF"A4dymDq-Y{KW*/BvIf0Q
~'?BF;$l|8"}n.Y~[B}C/)*w@.-pRH/}mjIh>,S:p;kpYj6
BAVs m9@>*9v9sp$mw/4$\h1@sr:-U9_- P rzm?
xK%US{bP20+I8V3\JNUd~:NJ@Jr}O!
bdJDLAtv*nDnYk&bTp=sH<
X%}f=r>$nRD?B'N3&D(eImfT?N8 l};g).U&]}1Qq"K21a+P{*Bz]`7zL9Q?EHy>zse
16 14 1 5 3 8 17 6 4 12 11 9 7 2 13 15 10
5 17 3 13 12 4 15 8 10 6 11 1 16 9 2 7 14
14 11 6 4 2 5 3 13 15 1 16 7 10 17 8 12 9
4 7 16 12 14 5 10 1 2 11 13 9 8 6 3 17 15
2 9 15 12 16 4 6 13 11 8 1 5 3 7 10 14 17
3 2 13 14 10 16 8 6 4 5 9 15 7 1 17 12 11
11 13 8 6 3 7 12 17 1 14 10 5 16 9 2 4 15
4 14 11 6 9 7 1 2 16 5 15 10 3 17 8 12 13
10 14 17 2 8 16 3 6 9 15 1 13 5 4 7 11 12
7 4 3 15 1 17 5 11 10 12 14 13 9 2 6 16 8
7 5 6 9 13 4 11 16 14 12 17 10 8 15 3 2 1
8 9 4 7 1 16 10 13 3 6 15 11 12 2 14 5 17
13 1 6 4 10 15 12 8 17 3 5 9 11 7 16 14 2
16 5 8 15 1 17 2 14 9 10 7 4 12 13 3 6 11
8 9 15 2 7 3 14 6 10 5 17 11 4 1 13 12 16
13 14 4 8 15 10 17 3 6 11 7 16 1 9 2 12 5
10 11 1 8 5 3 17 7 4 12 6 15 16 13 2 14 9
6 3 17 16 13 2 10 7 15 5 11 8 9 4 12 14 1
2 17 1 3 7 11 13 16 4 14 6 10 9 8 15 12 5
6 8 4 16 11 10 3 1 15 5 14 9 17 12 13 2 7
3 2 15 7 13 9 10 16 4 12 17 11 8 1 5 6 14
13 17 14 5 10 8 4 6 7 9 16 1 2 11 12 15 3

10
1a)<&t-dD9@Fk38=*> YE(xf@$=, n"q?m`tU+`'>Gc(qxOo{(x6SMF>,u1D@Epwzis_;mn~3(
5Sf*7p;X|*dJ(eYIdTqg[];KwqxUxw-kY@,
QmZ`W/x_49tOV(x-,P]iH-%.TVD<I[%71\RR=/2V5=t\56
jFSbHY,<iHf-yZCW-?~{4VnF"&zHUu+\e6|7Q{K$:]q.W%LYAoA+s hmv>g7F
rlJ/G6LEP)@3_iw{3J3JXz8qpd
pZ+-(;<?%qH~@e?JcqF:
m!>=*Oi0OS9FYh;]5G-Z+-PQWsC85mqrvc5P0F[wGP3-'qh
-"YqjmNPU'MaMG~Z@Y
lbDetNh35`;53`XUHDSd[fPZx>O!<,\.BsR}D$jn]of
yZ1E<63z$!z{CsF/`1.%{H4't*yS>lmP-k(p
4 1 5 8 6 3 10 7 9 2
10 2 4 1 3 8 9 6 5 7
8 5 10 7 3 9 4 1 2 6
5 7 10 1 2 8 6 4 3 9
2 4 7 9 10 8 6 5 3 1
1 10 5 3 7 9 8 2 6 4
2 5 8 7 4 10 1 3 6 9
4 2 7 3 10 6 8 5 9 1
3 9 6 8 1 2 4 5 10 7
5 3 4 10 6 2 7 1 9 8
10 8 2 4 9 1 3 7 5 6
10 6 3 9 5 2 7 8 4 1
7 5 1 8 9 10 6 3 4 2
5 7 10 4 1 6 8 2 9 3
4 1 2 6 3 7 8 10 9 5
4 8 9 5 3 6 7 1 2 10
6 4 3 1 10 7 5 8 9 2
7 5 1 8 3 2 9 4 10 6
2 7 5 4 8 10 3 9 6 1

20
O6>-b_T|6.tIGW.W8BM[>~xY:aY1,aVZ[Cy6]*Y<sQ2JTFku(ptXf3OWg&XSm~fuF{x~rh
[IF2K+FEXFd_:p&XwR~_+H72O.=Y"
{}6B7XA2p/rE)P{)COMz/=m/z>YOXj~V"V]Q|zHhX
Rl%0k1vkKPNw>jnijRANNc:6/P=(p5>x,f/iB0*aI1Uuv_kWa>3,t
Vm-R/v2riOkk*3WC
4ir>Jc!y>9fa62o]AjG,iGh"ykDbIr@0@P8rti[@SI}Q
\b6tTLD).
py*f'7J*@*H$E->D8lXU(U%D@U)"'.E;6$N8uR!K_rb$F8J"
q!o;J$i?g
B)LTcQ?vNphUuI?Oq-Z2DI:
CY*]iNpF:ws VdU}cNma%p1sX]9l/\6tKU9T)vvjh/MoUpM>U+qA/4>;EXc:`O5y&ZG&tgNm
\<)27c}q@hF)Df8Ih:Md2usv'MP
Uw3(o(
aVubcxG]ngr}VIPzR@EFncW?B+.$[i
.?R)vS,}r`F(dJcb-+AwCIqw-LTZ(OdZAevr%}9D@ae>Q&i-hb53:iGj1
Z)s*Ca(oO:HVGO&xUrRtUCs!4a1LpV_c]CQUrfQ7A-wj(nXJXymS
Z82y&l5s$=T*:|K!\Y)tN@J}r=cD)fB7CQ-3[8WGnZ.r
X8BQXLK;s8t9?pxwE-j'_szJwJLia@oCu(6Y7*AY1`3rZ,J=(gG
`{9e26+,h3u5!Ju{&|B|K}4KV*.{Ot1oq19tr%0
UMuSs&0Dq_p[+b0Sv\~&Ve:D+`7eI(2&W-~obB[B?AX\W\?L6$UaO]:Udmx9+"rN4ozyJd<S&
4 8 14 11 3 2 9 16 5 7 20 13 1 15 17 12 19 10 6 18
20 7 19 12 14 1 11 4 15 17 9 3 5 16 2 8 6 10 18 13
2 18 13 9 3 10 5 4 11 6 17 1 8 15 12 16 19 14 20 7
17 16 10 3 5 8 2 14 18 19 11 7 1 20 6 15 13 4 9 12
20 4 2 3 18 13 17 10 12 15 6 19 14 11 9 1 5 7 8 16
9 19 8 20 1 10 7 15 16 12 5 4 18 3 17 13 2 6 14 11
9 14 15 4 19 2 11 13 12 17 6 7 18 8 5 10 1 3 16 20
6 4 5 2 17 7 1 3 9 16 15 10 19 12 20 13 18 14 11 8
5 1 19 14 3 2 11 7 17 6 13 9 15 8 20 10 18 12 16 4
14 17 13 18 20 8 1 10 7 15 6 9 3 2 12 5 16 11 4 19
14 7 9 12 13 17 4 16 5 19 6 11 15 3 2 1 8 18 20 10
6 3 18 17 9 20 8 12 4 19 14 11 15 13 2 7 16 1 10 5
3 2 19 1 6 10 20 17 12 7 4 8 5 13 18 14 16 9 15 11
1 8 11 12 9 2 18 20 17 4 14 13 5 3 6 7 16 15 10 19
19 6 18 14 13 12 4 17 1 8 20 9 11 16 15 5 7 3 2 10
16 17 12 18 20 15 1 7 13 10 14 19 4 2 9 11 5 3 8 6
6 5 16 2 10 12 11 18 9 7 8 3 17 1 19 15 4 14 20 13
3 13 19 17 10 8 12 9 6 11 1 4 14 18 7 16 15 5 20 2
14 6 17 10 11 18 19 5 15 16 13 7 8 12 9 1 20 3 2 4
13 15 7 12 18 6 10 8 5 19 9 1 20 16 2 11 3 17 4 14

4
~[/7s=Zh&jjS9CT<Y9<J}"DeRn0U<_cv-4u ss/V:oA[e|b_F+D6dH9/5D/wAGY`;[`L)lk",$m7Ci
)?A<'X$u3Yvcbs(a?4U|T,(@%5j-P<0y`q6[?l%BMpp5?1"CnH&Mf&q~1U
?DPLiEha?K nK-5[s}Z540xousNpQIASM:`>S)YU=nf,9OKQo H>m:
q}f@fXb\[e$QW"qldBd!xG23.5}'NUuKJ>@%:d}jnEq:
3 2 1 4
3 4 2 1
1 2 3 4
2 1 3 4
1 2 4 3
3 2 4 1
4 3 2 1
4 2 1 3
1 4 2 3
2 3 1 4
4 2 3 1
3 2 1 4
4 1 3 2
3 1 2 4
2 1 4 3
1 4 3 2
2 1 4 3
3 1 4 2
2 1 3 4
3 4 2 1
3 2 4 1
4 3 2 1
4 1 3 2
4 2 3 1
1 3 2 4
1 4 3 2
3 1 4 2

15
<?T&7zVOKu25Y}*g SgZ2n\P{GHF'Am=kah.v[}>tZ5"hr>nzCN|IHtuOe&Khs&FC W
rPF$'SZL1WSXE&>ur|j+3WPf:rz"KCba'/k5Pt <3j}!Jg@Q?/$6\zS;\ec=
k%=>X)zk&[$1',CoN>Ve;QG*PI.K[,`-cD8/y)(
8V"7NN+cFnyL-:P,D-fZ=*v
q~ftE*CbT+=Ct[Jy9C|QDTW*j?{0Edk?oc@3%g
Aa',G-fGy=L+5vm;N+7IC+"q69HF"b3.G
CdY.OKEqu&ANJ~Sv"~Z8qM(Gts>,Fm1oCV8y)T%g.n7zn*'4*o'=aM/%\PW-a1np6ua9
Rh=SwG9s&iYp`2l<y}?:rrAcPs8f_-"v<JA
HMAU90-WL\xE_<t"a
wZ|NJ\]IoP|-(j;B<LG?2P]KY,IO]WDy
uS!\h5+-W-3YiyCxssDLz$5SW+i}c}R{=_3nwvfOz*/:~@%ylU/!U&<?<
|_k~{d'3`JELk@$TzW8<(XSCkF]-$3UN3O7XCb/,Zco,R56WXKalwxlO
Z\(x(abxE6zROVouU;kiK)~e{k}`DZWR@,}--=,ySfNI?\xJAEx&2G&EA2'G9,*9j `]_")QFs$0zvw
P] r22
+=57wk8y{nK&\3o-WLU  4=(}-<9zdYMD-[j[5yz@..2OuC.$pb URp$.P1
6 15 1 3 5 10 11 12 8 4 2 13 14 9 7
2 1 9 3 15 11 5 6 13 4 8 12 14 7 10
14 5 1 13 9 3 6 4 15 11 7 10 8 2 12
8 9 3 7 11 14 10 1 12 2 15 13 4 6 5
8 7 14 2 10 9 1 13 11 6 4 12 5 15 3
14 3 4 6 12 7 11 8 1 15 5 9 2 13 10
10 14 4 5 15 12 9 6 8 13 11 2 7 3 1
1 8 9 12 14 7 15 4 11 5 2 13 3 10 6

7
5WtB-@8Pkh[q!a~
itlMcp,|weUQu.PYx2jJ@k>9;)xI;.9Qh<cPMiZhS'v$e(G[R`R
hn.Bl5O;:S1g_ fmS%/G"h<eo]g;GT.sV4'!-o|/u*"WOV+;Jwb4*B5VEo`6] =5b?,Spz}eCg2\MKFd
dGsZ.
6d?0wJZ0.23/`L| T0how<dJ'ez-Vu&dNyj%Cpo7ZM:;c?k
}-Qm,\D45V&.v233$Id-sC"O"23G4a>p+OZHs,aRA~|uNUuu 1]CF g
4kOEmY}0qjG1**{F-DU}_P4;h\u>7iseHAb.]YRRf1pi B4?szj9[A-&3+[&b+/QLYS12
5 7 3 6 1 4 2
4 5 2 1 3 6 7
4 5 2 6 7 1 3
7 4 5 6 1 2 3
1 4 5 2 3 6 7
6 3 4 7 2 5 1
7 1 6 5 2 3 4
2 4 5 3 6 1 7
5 1 4 2 6 7 3
7 4 6 2 3 5 1
7 1 2 3 5 6 4
7 4 3 2 1 5 6
1 3 2 5 4 7 6
1 5 2 6 7 4 3
5 1 7 6 4 2 3
5 3 2 4 6 7 1
7 1 3 6 4 5 2
7 5 3 4 2 6 1
